Project1_team16_V0/src/wave.vcd
$date
	Mon Dec 26 22:04:07 2016
$end
$version
	Icarus Verilog
$end
$timescale
	1s
$end
$scope module TestBench $end
$var reg 1 ! Clk $end
$var reg 1 " Start $end
$var integer 32 # counter [31:0] $end
$var integer 32 $ flush [31:0] $end
$var integer 32 % i [31:0] $end
$var integer 32 & outfile [31:0] $end
$var integer 32 ' stall [31:0] $end
$scope module CPU $end
$var wire 1 ( beq_flush $end
$var wire 1 ! clk_i $end
$var wire 1 ) jump_reg $end
$var wire 1 * mux_branch $end
$var wire 1 " start_i $end
$var wire 32 + sign_ext_id_sh2 [31:0] $end
$var wire 32 , sign_ext_id [31:0] $end
$var wire 5 - shamt [4:0] $end
$var wire 32 . sh_addr [31:0] $end
$var wire 32 / sh_32 [31:0] $end
$var wire 28 0 sh_28_o [27:0] $end
$var wire 5 1 rt_ex [4:0] $end
$var wire 5 2 rt [4:0] $end
$var wire 10 3 rsrt [9:0] $end
$var wire 5 4 rs_ex [4:0] $end
$var wire 5 5 rs [4:0] $end
$var wire 32 6 read_data2_id [31:0] $end
$var wire 32 7 read_data2_ex [31:0] $end
$var wire 32 8 read_data1_id [31:0] $end
$var wire 32 9 read_data1_ex [31:0] $end
$var wire 5 : rd_ex [4:0] $end
$var wire 5 ; rd [4:0] $end
$var wire 1 < pc_flush $end
$var wire 32 = pc_4_ID [31:0] $end
$var wire 32 > pc_4 [31:0] $end
$var wire 6 ? opcode [5:0] $end
$var wire 32 @ next_pc [31:0] $end
$var wire 32 A muxRT_data_o [31:0] $end
$var wire 32 B muxRS_data_o [31:0] $end
$var wire 1 C lw_stall $end
$var wire 1 D jump $end
$var wire 32 E inst_addr [31:0] $end
$var wire 32 F inst_ID [31:0] $end
$var wire 32 G inst [31:0] $end
$var wire 16 H imm [15:0] $end
$var wire 1 I equal $end
$var wire 32 J dm_o [31:0] $end
$var wire 32 K dm_data [31:0] $end
$var wire 32 L dm_Write_Data [31:0] $end
$var wire 1 M ctrl_branch $end
$var wire 8 N control_id [7:0] $end
$var wire 32 O branch_addr [31:0] $end
$var wire 1 P Zero $end
$var wire 5 Q Write_Register_mem [4:0] $end
$var wire 5 R Write_Register_ex [4:0] $end
$var wire 5 S Write_Register [4:0] $end
$var wire 32 T Write_Data [31:0] $end
$var wire 2 U WB_mem [1:0] $end
$var wire 2 V WB_id [1:0] $end
$var wire 2 W WB_ex [1:0] $end
$var wire 32 X Sign_extend_o [31:0] $end
$var wire 1 Y Reg_Write $end
$var wire 1 Z RegDst $end
$var wire 2 [ RT_Src_Ctr [1:0] $end
$var wire 2 \ RS_Src_Ctr [1:0] $end
$var wire 1 ] MemtoReg $end
$var wire 1 ^ MemWrite $end
$var wire 1 _ MemRead $end
$var wire 2 ` M_id [1:0] $end
$var wire 2 a M_ex [1:0] $end
$var wire 1 b IDEX_flush $end
$var wire 4 c EX_id [3:0] $end
$var wire 32 d ALU_mem [31:0] $end
$var wire 32 e ALU_i2 [31:0] $end
$var wire 32 f ALU_ex [31:0] $end
$var wire 32 g ALU_data [31:0] $end
$var wire 1 h ALUSrc $end
$var wire 2 i ALUOp [1:0] $end
$var wire 3 j ALUCtrl [2:0] $end
$scope module ALU $end
$var wire 32 k sub_ab [31:0] $end
$var wire 1 l slt $end
$var wire 1 m oflow_sub $end
$var wire 32 n data2_i [31:0] $end
$var wire 32 o data1_i [31:0] $end
$var wire 3 p ALUCtrl_i [2:0] $end
$var reg 1 P Zero_o $end
$var reg 32 q data_o [31:0] $end
$upscope $end
$scope module ALU_Control $end
$var wire 2 r ALUOp_i [1:0] $end
$var wire 6 s funct_i [5:0] $end
$var reg 3 t ALUCtrl_o [2:0] $end
$upscope $end
$scope module Add_PC $end
$var wire 32 u data2_in [31:0] $end
$var wire 32 v data_o [31:0] $end
$var wire 32 w data1_in [31:0] $end
$upscope $end
$scope module Add_imm $end
$var wire 32 x data2_in [31:0] $end
$var wire 32 y data_o [31:0] $end
$var wire 32 z data1_in [31:0] $end
$upscope $end
$scope module Control $end
$var wire 6 { Op_i [5:0] $end
$var wire 8 | Bus_o [7:0] $end
$var reg 2 } ALUOp_o [1:0] $end
$var reg 1 ~ ALUSrc_o $end
$var reg 1 M Branch_o $end
$var reg 1 !" ExtOp_o $end
$var reg 1 D Jump_o $end
$var reg 1 "" MemRead_o $end
$var reg 1 #" MemWrite_o $end
$var reg 1 $" MemtoReg_o $end
$var reg 1 %" RegDst_o $end
$var reg 1 &" RegWrite_o $end
$upscope $end
$scope module EXMEM $end
$var wire 1 '" clear $end
$var wire 1 ! clk $end
$var wire 1 (" hold $end
$var wire 73 )" in [72:0] $end
$var reg 73 *" out [72:0] $end
$upscope $end
$scope module Forwarding_unit $end
$var wire 5 +" MEM_Rd_i [4:0] $end
$var wire 1 ," MEM_W_i $end
$var wire 5 -" RS_i [4:0] $end
$var wire 5 ." RT_i [4:0] $end
$var wire 5 /" WB_Rd_i [4:0] $end
$var wire 1 Y WB_W_i $end
$var wire 1 ! clk_i $end
$var reg 2 0" RS_Src_o [1:0] $end
$var reg 2 1" RT_Src_o [1:0] $end
$upscope $end
$scope module HazDetect_unit $end
$var wire 1 2" MemRead_i $end
$var wire 5 3" Prev_RT_i [4:0] $end
$var wire 10 4" RSRT_i [9:0] $end
$var wire 1 ! clk_i $end
$var wire 5 5" Cur_RT [4:0] $end
$var wire 5 6" Cur_RS [4:0] $end
$var reg 1 b IDEXWrite_o $end
$var reg 1 C IFIDWrite_o $end
$var reg 1 < PCWrite_o $end
$upscope $end
$scope module IDEX $end
$var wire 1 C clear $end
$var wire 1 ! clk $end
$var wire 1 7" hold $end
$var wire 119 8" in [118:0] $end
$var reg 119 9" out [118:0] $end
$upscope $end
$scope module IFID $end
$var wire 1 ( clear $end
$var wire 1 ! clk $end
$var wire 1 C hold $end
$var wire 64 :" in [63:0] $end
$var reg 64 ;" out [63:0] $end
$upscope $end
$scope module Instruction_Memory $end
$var wire 32 <" instr_o [31:0] $end
$var wire 32 =" addr_i [31:0] $end
$upscope $end
$scope module MEMWB $end
$var wire 1 >" clear $end
$var wire 1 ! clk $end
$var wire 1 ?" hold $end
$var wire 71 @" in [70:0] $end
$var reg 71 A" out [70:0] $end
$upscope $end
$scope module MUX32_3in_rs $end
$var wire 32 B" preALU_i [31:0] $end
$var wire 32 C" reg_i [31:0] $end
$var wire 2 D" select_i [1:0] $end
$var wire 32 E" DMorALU_i [31:0] $end
$var reg 32 F" data_o [31:0] $end
$upscope $end
$scope module MUX32_3in_rt $end
$var wire 32 G" preALU_i [31:0] $end
$var wire 32 H" reg_i [31:0] $end
$var wire 2 I" select_i [1:0] $end
$var wire 32 J" DMorALU_i [31:0] $end
$var reg 32 K" data_o [31:0] $end
$upscope $end
$scope module MUX8 $end
$var wire 8 L" data1_i [7:0] $end
$var wire 8 M" data2_i [7:0] $end
$var wire 1 b select_i $end
$var wire 8 N" data_o [7:0] $end
$upscope $end
$scope module MUX_ALUSrc $end
$var wire 32 O" data1_i [31:0] $end
$var wire 32 P" data2_i [31:0] $end
$var wire 1 h select_i $end
$var wire 32 Q" data_o [31:0] $end
$upscope $end
$scope module MUX_BranchPC $end
$var wire 32 R" data1_i [31:0] $end
$var wire 32 S" data2_i [31:0] $end
$var wire 1 * select_i $end
$var wire 32 T" data_o [31:0] $end
$upscope $end
$scope module MUX_JumpPC $end
$var wire 32 U" data1_i [31:0] $end
$var wire 32 V" data2_i [31:0] $end
$var wire 1 ) select_i $end
$var wire 32 W" data_o [31:0] $end
$upscope $end
$scope module MUX_MemtoReg $end
$var wire 32 X" data1_i [31:0] $end
$var wire 32 Y" data2_i [31:0] $end
$var wire 1 ] select_i $end
$var wire 32 Z" data_o [31:0] $end
$upscope $end
$scope module MUX_RegDst $end
$var wire 5 [" data1_i [4:0] $end
$var wire 5 \" data2_i [4:0] $end
$var wire 1 Z select_i $end
$var wire 5 ]" data_o [4:0] $end
$upscope $end
$scope module PC $end
$var wire 1 ! clk_i $end
$var wire 1 < flushPC_i $end
$var wire 32 ^" pc_i [31:0] $end
$var wire 1 " start_i $end
$var reg 32 _" pc_o [31:0] $end
$upscope $end
$scope module Registers $end
$var wire 5 `" RDaddr_i [4:0] $end
$var wire 32 a" RDdata_i [31:0] $end
$var wire 5 b" RSaddr_i [4:0] $end
$var wire 5 c" RTaddr_i [4:0] $end
$var wire 1 Y RegWrite_i $end
$var wire 1 ! clk_i $end
$var reg 32 d" RSdata_o [31:0] $end
$var reg 32 e" RTdata_o [31:0] $end
$upscope $end
$scope module Shift_32 $end
$var wire 32 f" data_o [31:0] $end
$var wire 32 g" data_i [31:0] $end
$upscope $end
$scope module Sign_Extend $end
$var wire 16 h" data_i [15:0] $end
$var wire 32 i" data_o [31:0] $end
$upscope $end
$scope module dm $end
$var wire 32 j" addr [31:0] $end
$var wire 1 ! clk $end
$var wire 1 _ rd $end
$var wire 32 k" wdata [31:0] $end
$var wire 1 ^ wr $end
$var reg 32 l" rdata [31:0] $end
$upscope $end
$scope module sh_26_28 $end
$var wire 26 m" data_i [25:0] $end
$var reg 28 n" data_o [27:0] $end
$upscope $end
$upscope $end
$upscope $end
$enddefinitions $end
#0
$dumpvars
bx n"
bx m"
bx l"
bx k"
bx j"
b0xxxxxxxxxxxxxxxx i"
bx h"
b0xxxxxxxxxxxxxxxx g"
b0xxxxxxxxxxxxxxxx00 f"
bx e"
bx d"
bx c"
bx b"
bx a"
bx `"
b0 _"
b100 ^"
bx ]"
bx \"
bx ["
bx Z"
bx Y"
bx X"
b100 W"
b0xxxxxxxxxxxxxxxxxxxxxxxxxxxx V"
b100 U"
b100 T"
bx S"
b100 R"
bx Q"
b0xxxxxxxxxxxxxxxx P"
bx O"
bx N"
b0 M"
bx L"
bx K"
bx J"
bx I"
bx H"
bx G"
bx F"
bx E"
bx D"
bx C"
bx B"
bx A"
bx @"
0?"
0>"
b0 ="
b100000000001000000000000000000 <"
b100xxxxxxxxxxxxxxxxxxxxxxxxxxxxxxxx ;"
b10000100000000001000000000000000000 :"
bx0000000000000000xxxxxxxxxxxxxxxxxxxxxxxxxxxxxxx 9"
bx0000000000000000xxxxxxxxxxxxxxxxxxxxxxxxxxxxxxx 8"
07"
bx 6"
bx 5"
bx 4"
bx 3"
x2"
bx 1"
bx 0"
bx /"
bx ."
bx -"
x,"
bx +"
bx *"
bx )"
0("
0'"
x&"
x%"
x$"
x#"
x""
x!"
x~
bx }
bx |
bx {
b0xxxxxxxxxxxxxxxx00 z
bx y
b100 x
b0 w
b100 v
b100 u
bx t
bx s
bx r
bx q
bx p
bx o
bx n
xm
xl
bx k
bx j
bx i
xh
bx g
bx f
bx e
bx d
bx c
xb
bx a
bx `
x_
x^
x]
bx \
bx [
xZ
xY
b0xxxxxxxxxxxxxxxx X
bx W
bx V
bx U
bx T
bx S
bx R
bx Q
xP
b100 O
bx N
0M
bx L
bx K
bx J
xI
bx H
b100000000001000000000000000000 G
bx F
b0 E
0D
xC
bx B
bx A
b100 @
bx ?
b100 >
b100 =
x<
bx ;
bx :
bx 9
bx 8
bx 7
bx 6
bx 5
bx 4
bx 3
bx 2
bx 1
bx 0
b0xxxxxxxxxxxxxxxxxxxxxxxxxxxx /
bx .
bx -
b0xxxxxxxxxxxxxxxx ,
b0xxxxxxxxxxxxxxxx00 +
0*
0)
0(
b0 '
b11 &
b100000 %
b0 $
b0 #
0"
1!
$end
#12
1"
#25
0!
#50
b1 V
b0 `
b1100 c
1I
b11000001 N"
0b
0C
0<
b10 }
0!"
0""
0#"
1&"
0$"
1~
b11000001 N
b11000001 |
b11000001 L"
0%"
b0 6"
b100 5"
b0 6
b0 e"
b0 8
b0 d"
b100 .
b100 y
b100 S"
b0 +
b0 z
b0 f"
b100000000000000000000 /
b100000000000000000000 V"
b100000000000000000000 0
b100000000000000000000 n"
b1000 ?
b1000 {
b100 3
b100 4"
b0 5
b0 b"
b100 2
b100 c"
b0 ;
b1001100000000000000000000000000000000000000000000000000000000000000000000000000000000000000000000000000000000010000000 8"
b0 ,
b0 g"
b0 i"
b0 H
b0 h"
b0 -
b1000000000000000000 m"
b1000 @
b1000 W"
b1000 ^"
b100000000001000000000000000000 F
b100000000010000000000000000000 G
b100000000010000000000000000000 <"
b1000 O
b1000 T"
b1000 U"
b10000100000000001000000000000000000 ;"
b100000100000000010000000000000000000 :"
b1000 >
b1000 v
b1000 R"
b100 E
b100 w
b100 ="
b100 _"
b1 #
1!
#75
0!
#100
0l
0m
b0 f
b0 q
b1000 5"
b1000000000000000000000 /
b1000000000000000000000 V"
b1000000000000000000000 0
b1000000000000000000000 n"
b0 A
b0 K"
b0 O"
b0 k
b0 B
b0 o
b0 F"
b1100 @
b1100 W"
b1100 ^"
b1000 3
b1000 4"
b1001100000000000000000000000000000000000000000000000000000000000000000000000000000000000000000000000000000000100000000 8"
b1000 2
b1000 c"
b10000000000000000000 m"
b0 [
b0 1"
b0 I"
b100 R
b100 ]"
b0 \
b0 0"
b0 D"
b0 s
b0 e
b0 n
b0 Q"
b10 j
b10 p
b10 t
02"
b100000000010010000000000000001 G
b100000000010010000000000000001 <"
b1100 O
b1100 T"
b1100 U"
b100000000010000000000000000000 F
b1000 .
b1000 y
b1000 S"
b1000 =
b1000 x
b0 :
b0 \"
b100 1
b100 ."
b100 3"
b100 ["
b0 4
b0 -"
b0 X
b0 P"
b0 7
b0 H"
b0 9
b0 C"
0Z
b10 i
b10 r
1h
b0 a
b100000000000000000000000000000000000000000000000000000000000000000000100 )"
b1 W
b110000100000000010010000000000000001 :"
b1100 >
b1100 v
b1100 R"
b1000 E
b1000 w
b1000 ="
b1000 _"
b100000100000000010000000000000000000 ;"
b1001100000000000000000000000000000000000000000000000000000000000000000000000000000000000000000000000000000000010000000 9"
b10 #
1!
#125
0!
#150
b1001 5"
b100 +
b100 z
b100 f"
b1001000000000000000100 /
b1001000000000000000100 V"
b1001000000000000000100 0
b1001000000000000000100 n"
1,"
b100000000000000000000000000000000000000000000000000000000000000000001000 )"
b1000 R
b1000 ]"
b1001 3
b1001 4"
b1001 2
b1001 c"
b1001100000000000000000000000000000000000000000000000000000000000000000000000000000000000000000000000001000000100100000 8"
b1 ,
b1 g"
b1 i"
b1 H
b1 h"
b10010000000000000001 m"
b10000 @
b10000 W"
b10000 ^"
b100 Q
b100 +"
b0 L
b0 k"
b0 d
b0 B"
b0 G"
b0 j"
0^
0_
b1xxxxxxxxxxxxxxxxxxxxxxxxxxxxxxxx0000000000000000000000000000000000100 @"
b1 U
b1000 1
b1000 ."
b1000 3"
b1000 ["
b100000000010010000000000000001 F
b10000 .
b10000 y
b10000 S"
b1100 =
b1100 x
b100000000100010000000000000000 G
b100000000100010000000000000000 <"
b10000 O
b10000 T"
b10000 U"
b100000000000000000000000000000000000000000000000000000000000000000000100 *"
b1001100000000000000000000000000000000000000000000000000000000000000000000000000000000000000000000000000000000100000000 9"
b110000100000000010010000000000000001 ;"
b1000000100000000100010000000000000000 :"
b10000 >
b10000 v
b10000 R"
b1100 E
b1100 w
b1100 ="
b1100 _"
b11 #
1!
#175
0!
#200
1l
1m
b10001 5"
b0 +
b0 z
b0 f"
b10001000000000000000000 /
b10001000000000000000000 V"
b10001000000000000000000 0
b10001000000000000000000 n"
b1 f
b1 q
b10100 @
b10100 W"
b10100 ^"
b10001 3
b10001 4"
b10001 2
b10001 c"
b1001100000000000000000000000000000000000000000000000000000000000000000000000000000000000000000000000000000001000100000 8"
b0 ,
b0 g"
b0 i"
b0 H
b0 h"
b100010000000000000000 m"
b100000000000000000000000000000000010000000000000000000000000000000001001 )"
b1001 R
b1001 ]"
b1 s
b11111111111111111111111111111111 k
b1 e
b1 n
b1 Q"
b0 T
b0 E"
b0 J"
b0 Z"
b0 a"
b100000000100100000000000000001 G
b100000000100100000000000000001 <"
b10100 O
b10100 T"
b10100 U"
b100000000100010000000000000000 F
b10000 .
b10000 y
b10000 S"
b10000 =
b10000 x
b1001 1
b1001 ."
b1001 3"
b1001 ["
b1 X
b1 P"
b1xxxxxxxxxxxxxxxxxxxxxxxxxxxxxxxx0000000000000000000000000000000001000 @"
b1000 Q
b1000 +"
b100 S
b100 /"
b100 `"
b0 g
b0 X"
1Y
0]
b1010000100000000100100000000000000001 :"
b10100 >
b10100 v
b10100 R"
b10000 E
b10000 w
b10000 ="
b10000 _"
b1000000100000000100010000000000000000 ;"
b1001100000000000000000000000000000000000000000000000000000000000000000000000000000000000000000000000001000000100100000 9"
b100000000000000000000000000000000000000000000000000000000000000000001000 *"
b1xxxxxxxxxxxxxxxxxxxxxxxxxxxxxxxx0000000000000000000000000000000000100 A"
b100 #
1!
#225
0!
#250
0l
0m
b0 f
b0 q
b10010 5"
b100 +
b100 z
b100 f"
b10010000000000000000100 /
b10010000000000000000100 V"
b10010000000000000000100 0
b10010000000000000000100 n"
b100000000000000000000000000000000000000000000000000000000000000000010001 )"
b10001 R
b10001 ]"
b0 s
b0 k
b0 e
b0 n
b0 Q"
b10010 3
b10010 4"
b10010 2
b10010 c"
b1001100000000000000000000000000000000000000000000000000000000000000000000000000000000000000000000000001000001001000000 8"
b1 ,
b1 g"
b1 i"
b1 H
b1 h"
b100100000000000000001 m"
b11000 @
b11000 W"
b11000 ^"
b1000 S
b1000 /"
b1000 `"
b1001 Q
b1001 +"
b1xxxxxxxxxxxxxxxxxxxxxxxxxxxxxxxx0000000000000000000000000000000101001 @"
b1 d
b1 B"
b1 G"
b1 j"
b10001 1
b10001 ."
b10001 3"
b10001 ["
b0 X
b0 P"
b100000000100100000000000000001 F
b11000 .
b11000 y
b11000 S"
b10100 =
b10100 x
b10001100100100000000000000000000 G
b10001100100100000000000000000000 <"
b11000 O
b11000 T"
b11000 U"
b1xxxxxxxxxxxxxxxxxxxxxxxxxxxxxxxx0000000000000000000000000000000001000 A"
b100000000000000000000000000000000010000000000000000000000000000000001001 *"
b1001100000000000000000000000000000000000000000000000000000000000000000000000000000000000000000000000000000001000100000 9"
b1010000100000000100100000000000000001 ;"
b1100010001100100100000000000000000000 :"
b11000 >
b11000 v
b11000 R"
b10100 E
b10100 w
b10100 ="
b10100 _"
b101 #
1!
#275
0!
#300
1l
1m
b11 V
b10 `
b1000 c
b10001011 N"
b0 }
1!"
1""
b10001011 N
b10001011 |
b10001011 L"
1$"
b100 6"
b10000 5"
b0 +
b0 z
b0 f"
b10010000000000000000000000 /
b10010000000000000000000000 V"
b10010000000000000000000000 0
b10010000000000000000000000 n"
b1 f
b1 q
b11100 @
b11100 W"
b11100 ^"
b100011 ?
b100011 {
b10010000 3
b10010000 4"
b100 5
b100 b"
b10000 2
b10000 c"
b11101000000000000000000000000000000000000000000000000000000000000000000000000000000000000000000000000000001001000000000 8"
b0 ,
b0 g"
b0 i"
b0 H
b0 h"
b100100000000000000000000 m"
b100000000000000000000000000000000010000000000000000000000000000000010010 )"
b10010 R
b10010 ]"
b1 s
b11111111111111111111111111111111 k
b1 e
b1 n
b1 Q"
b1 T
b1 E"
b1 J"
b1 Z"
b1 a"
b100010000101000000000000000000 G
b100010000101000000000000000000 <"
b11100 O
b11100 T"
b11100 U"
b10001100100100000000000000000000 F
b11000 .
b11000 y
b11000 S"
b11000 =
b11000 x
b10010 1
b10010 ."
b10010 3"
b10010 ["
b1 X
b1 P"
b10001 Q
b10001 +"
b1xxxxxxxxxxxxxxxxxxxxxxxxxxxxxxxx0000000000000000000000000000000010001 @"
b0 d
b0 B"
b0 G"
b0 j"
b1001 S
b1001 /"
b1001 `"
b1 g
b1 X"
b1110000100010000101000000000000000000 :"
b11100 >
b11100 v
b11100 R"
b11000 E
b11000 w
b11000 ="
b11000 _"
b1100010001100100100000000000000000000 ;"
b1001100000000000000000000000000000000000000000000000000000000000000000000000000000000000000000000000001000001001000000 9"
b100000000000000000000000000000000000000000000000000000000000000000010001 *"
b1xxxxxxxxxxxxxxxxxxxxxxxxxxxxxxxx0000000000000000000000000000000101001 A"
b110 #
1!
#325
0!
#350
0l
0m
b0 V
b0 `
b0 c
b0 N"
b0 f
b0 q
b10 }
0!"
0""
b11000001 N
b11000001 |
b11000001 L"
0$"
b10000 6"
b10100 5"
b1000010100000000000000000000 /
b1000010100000000000000000000 V"
b1000010100000000000000000000 0
b1000010100000000000000000000 n"
b0 T
b0 E"
b0 J"
b0 Z"
b0 a"
1b
1C
1<
b10000 R
b10000 ]"
b0 s
b0 k
b0 e
b0 n
b0 Q"
12"
b1000 ?
b1000 {
b1000010100 3
b1000010100 4"
b10000 5
b10000 b"
b100001010000000 8"
b10100 2
b10100 c"
b10000101000000000000000000 m"
b100000 @
b100000 W"
b100000 ^"
b10001 S
b10001 /"
b10001 `"
b0 g
b0 X"
b10010 Q
b10010 +"
b1xxxxxxxxxxxxxxxxxxxxxxxxxxxxxxxx0000000000000000000000000000000110010 @"
b1 d
b1 B"
b1 G"
b1 j"
b10000 1
b10000 ."
b10000 3"
b10000 ["
b100 4
b100 -"
b0 X
b0 P"
b0 i
b0 r
b10 a
b1110000000000000000000000000000000000000000000000000000000000000000010000 )"
b11 W
b100010000101000000000000000000 F
b11100 .
b11100 y
b11100 S"
b11100 =
b11100 x
b10000010011000000000100010 G
b10000010011000000000100010 <"
b100000 O
b100000 T"
b100000 U"
b1xxxxxxxxxxxxxxxxxxxxxxxxxxxxxxxx0000000000000000000000000000000010001 A"
b100000000000000000000000000000000010000000000000000000000000000000010010 *"
b11101000000000000000000000000000000000000000000000000000000000000000000000000000000000000000000000000000001001000000000 9"
b1110000100010000101000000000000000000 ;"
b10000000000010000010011000000000100010 :"
b100000 >
b100000 v
b100000 R"
b11100 E
b11100 w
b11100 ="
b11100 _"
b111 #
1!
#375
0!
#400
b101 J
b101 l"
b1 V
b1001100000000000000000000000000000000000000000000000000000000000000000000000000000000000000000000000000100001010000000 8"
b1100 c
b11000001 N"
0b
0C
0<
b0 R
b0 ]"
02"
b1 T
b1 E"
b1 J"
b1 Z"
b1 a"
b0 1
b0 ."
b0 3"
b0 ["
b0 4
b0 -"
0h
b0 a
b0 )"
b0 W
b10000 Q
b10000 +"
b0 d
b0 B"
b0 G"
b0 j"
1_
b11000000000000000000000000000001010000000000000000000000000000000010000 @"
b11 U
b10010 S
b10010 /"
b10010 `"
b1 g
b1 X"
b0 9"
b1110000000000000000000000000000000000000000000000000000000000000000010000 *"
b1xxxxxxxxxxxxxxxxxxxxxxxxxxxxxxxx0000000000000000000000000000000110010 A"
b1000 #
b1 '
1!
#425
0!
#450
b111 c
0I
b101 f
b101 q
b1110001 N"
b101 k
b101 B
b101 o
b101 F"
b11 }
0~
b1110001 N
b1110001 |
b1110001 L"
1%"
b1001 5"
b1 6
b1 e"
b100000000010001000 +
b100000000010001000 z
b100000000010001000 f"
b1000001001100000000010001000 /
b1000001001100000000010001000 V"
b1000001001100000000010001000 0
b1000001001100000000010001000 n"
b101 T
b101 E"
b101 J"
b101 Z"
b101 a"
0,"
b10100 R
b10100 ]"
b1 \
b1 0"
b1 D"
b0 ?
b0 {
b1000001001 3
b1000001001 4"
b1001 2
b1001 c"
b10000 ;
b1000111000000000000000000000000000000000000000000000000000000000000000100000000000000001000000000100010100000100110000 8"
b1000000000100010 ,
b1000000000100010 g"
b1000000000100010 i"
b1000000000100010 H
b1000000000100010 h"
b10000010011000000000100010 m"
b100100 @
b100100 W"
b100100 ^"
b10000 S
b10000 /"
b10000 `"
b0 g
b0 X"
b101 K
b101 Y"
1]
b0 Q
b0 +"
0_
b1010000000000000000000000000000000000000 @"
b0 U
b10100 1
b10100 ."
b10100 3"
b10100 ["
b10000 4
b10000 -"
b10 i
b10 r
1h
b100000000000000000000000000000001010000000000000000000000000000000010100 )"
b1 W
b10000010011000000000100010 F
b100000000010101000 .
b100000000010101000 y
b100000000010101000 S"
b100000 =
b100000 x
b10001100101000100000100000 G
b10001100101000100000100000 <"
b100100 O
b100100 T"
b100100 U"
b11000000000000000000000000000001010000000000000000000000000000000010000 A"
b0 *"
b1001100000000000000000000000000000000000000000000000000000000000000000000000000000000000000000000000000100001010000000 9"
b10000000000010000010011000000000100010 ;"
b10010000000010001100101000100000100000 :"
b100100 >
b100100 v
b100100 R"
b100000 E
b100000 w
b100000 ="
b100000 _"
b1001 #
1!
#475
b1000111000000000000000000000000000001010000000000000000000000000000000100000000000000001000000000100010100000100110000 8"
b101 8
b101 d"
0!
#500
b10001 6"
b10010 5"
b0 8
b0 d"
b100010000010000000 +
b100010000010000000 z
b100010000010000000 f"
b1000110010100010000010000000 /
b1000110010100010000010000000 V"
b1000110010100010000010000000 0
b1000110010100010000010000000 n"
b110 j
b110 p
b110 t
b100 f
b100 q
b0 T
b0 E"
b0 J"
b0 Z"
b0 a"
b101000 @
b101000 W"
b101000 ^"
b1000110010 3
b1000110010 4"
b10001 5
b10001 b"
b10010 2
b10010 c"
b10001 ;
b1000111000000000000000000000000000000000000000000000000000000000000000100000000000000001000100000100000100011001010001 8"
b1000100000100000 ,
b1000100000100000 g"
b1000100000100000 i"
b1000100000100000 H
b1000100000100000 h"
b10001100101000100000100000 m"
b10000 R
b10000 ]"
b100010 s
b100 k
b1 e
b1 n
b1 Q"
b100000000000000000000000000000001000000000000000000000000000000000110000 )"
b1 A
b1 K"
b1 O"
1,"
b0 \
b0 0"
b0 D"
b100010010100110000000000000000 G
b100010010100110000000000000000 <"
b101000 O
b101000 T"
b101000 U"
b10001100101000100000100000 F
b100010000010100100 .
b100010000010100100 y
b100010000010100100 S"
b100100 =
b100100 x
b10000 :
b10000 \"
b1001 1
b1001 ."
b1001 3"
b1001 ["
b1000000000100010 X
b1000000000100010 P"
b1 7
b1 H"
b101 9
b101 C"
1Z
b11 i
b11 r
0h
b10100 Q
b10100 +"
b101 d
b101 B"
b101 G"
b101 j"
b1000000000000000000000000000001010000000000000000000000000000010110100 @"
b1 U
b0 S
b0 /"
b0 `"
0Y
0]
b10100000100010010100110000000000000000 :"
b101000 >
b101000 v
b101000 R"
b100100 E
b100100 w
b100100 ="
b100100 _"
b10010000000010001100101000100000100000 ;"
b1000111000000000000000000000000000001010000000000000000000000000000000100000000000000001000000000100010100000100110000 9"
b100000000000000000000000000000001010000000000000000000000000000000010100 *"
b1010000000000000000000000000000000000000 A"
b1010 #
1!
#525
0!
#550
1l
1m
b1100 c
b11000001 N"
b10 j
b10 p
b10 t
b1 f
b1 q
b10 }
1~
b11000001 N
b11000001 |
b11000001 L"
0%"
b10010 6"
b10011 5"
b0 6
b0 e"
b1 8
b1 d"
b0 +
b0 z
b0 f"
b1001010011000000000000000000 /
b1001010011000000000000000000 V"
b1001010011000000000000000000 0
b1001010011000000000000000000 n"
b101 T
b101 E"
b101 J"
b101 Z"
b101 a"
b100000000000000000000000000000000010000000000000000000000000000000110001 )"
b10001 R
b10001 ]"
b100000 s
b11111111111111111111111111111111 k
b0 B
b0 o
b0 F"
b1000 ?
b1000 {
b1001010011 3
b1001010011 4"
b10010 5
b10010 b"
b10011 2
b10011 c"
b0 ;
b1001100000000000000000000000000000000010000000000000000000000000000000000000000000000000000000000000000100101001100000 8"
b0 ,
b0 g"
b0 i"
b0 H
b0 h"
b10010100110000000000000000 m"
b101100 @
b101100 W"
b101100 ^"
b10100 S
b10100 /"
b10100 `"
b101 g
b101 X"
1Y
b10000 Q
b10000 +"
b1 L
b1 k"
b1000000000000000000000000000001010000000000000000000000000000010010000 @"
b100 d
b100 B"
b100 G"
b100 j"
b10001 :
b10001 \"
b10010 1
b10010 ."
b10010 3"
b10010 ["
b10001 4
b10001 -"
b1000100000100000 X
b1000100000100000 P"
b0 9
b0 C"
b100010010100110000000000000000 F
b101000 .
b101000 y
b101000 S"
b101000 =
b101000 x
b100010001100100000000000000000 G
b100010001100100000000000000000 <"
b101100 O
b101100 T"
b101100 U"
b1000000000000000000000000000001010000000000000000000000000000010110100 A"
b100000000000000000000000000000001000000000000000000000000000000000110000 *"
b1000111000000000000000000000000000000000000000000000000000000000000000100000000000000001000100000100000100011001010001 9"
b10100000100010010100110000000000000000 ;"
b10110000100010001100100000000000000000 :"
b101100 >
b101100 v
b101100 R"
b101000 E
b101000 w
b101000 ="
b101000 _"
b1011 #
1!
#575
0!
