Project2/dcache_one_way_example/wave.vcd
$date
	Tue Dec 27 01:51:34 2016
$end
$version
	Icarus Verilog
$end
$timescale
	1s
$end
$scope module TestBench $end
$var wire 256 ! mem_cpu_data [255:0] $end
$var wire 1 " mem_cpu_ack $end
$var wire 1 # cpu_mem_write $end
$var wire 1 $ cpu_mem_enable $end
$var wire 256 % cpu_mem_data [255:0] $end
$var wire 32 & cpu_mem_addr [31:0] $end
$var reg 1 ' Clk $end
$var reg 1 ( Reset $end
$var reg 1 ) Start $end
$var reg 27 * address [26:0] $end
$var reg 1 + flag $end
$var reg 5 , index [4:0] $end
$var reg 24 - tag [23:0] $end
$var integer 32 . counter [31:0] $end
$var integer 32 / i [31:0] $end
$var integer 32 0 outfile [31:0] $end
$var integer 32 1 outfile2 [31:0] $end
$scope module CPU $end
$var wire 1 2 beq_flush $end
$var wire 1 ' clk_i $end
$var wire 1 3 jump_reg $end
$var wire 1 4 mux_branch $end
$var wire 1 ( rst_i $end
$var wire 1 ) start_i $end
$var wire 32 5 sign_ext_id_sh2 [31:0] $end
$var wire 32 6 sign_ext_id [31:0] $end
$var wire 5 7 shamt [4:0] $end
$var wire 32 8 sh_addr [31:0] $end
$var wire 32 9 sh_32 [31:0] $end
$var wire 28 : sh_28_o [27:0] $end
$var wire 5 ; rt_ex [4:0] $end
$var wire 5 < rt [4:0] $end
$var wire 10 = rsrt [9:0] $end
$var wire 5 > rs_ex [4:0] $end
$var wire 5 ? rs [4:0] $end
$var wire 32 @ read_data2_id [31:0] $end
$var wire 32 A read_data2_ex [31:0] $end
$var wire 32 B read_data1_id [31:0] $end
$var wire 32 C read_data1_ex [31:0] $end
$var wire 5 D rd_ex [4:0] $end
$var wire 5 E rd [4:0] $end
$var wire 1 F pc_stall_haz $end
$var wire 32 G pc_4_ID [31:0] $end
$var wire 32 H pc_4 [31:0] $end
$var wire 6 I opcode [5:0] $end
$var wire 32 J next_pc [31:0] $end
$var wire 32 K muxRT_data_o [31:0] $end
$var wire 32 L muxRS_data_o [31:0] $end
$var wire 1 # mem_write_o $end
$var wire 1 $ mem_enable_o $end
$var wire 256 M mem_data_o [255:0] $end
$var wire 256 N mem_data_i [255:0] $end
$var wire 32 O mem_addr_o [31:0] $end
$var wire 1 " mem_ack_i $end
$var wire 1 P lw_stall $end
$var wire 1 Q jump $end
$var wire 32 R inst_addr [31:0] $end
$var wire 32 S inst_ID [31:0] $end
$var wire 32 T inst [31:0] $end
$var wire 16 U imm [15:0] $end
$var wire 1 V equal $end
$var wire 32 W dm_o [31:0] $end
$var wire 32 X dm_data [31:0] $end
$var wire 32 Y dm_Write_Data [31:0] $end
$var wire 1 Z ctrl_branch $end
$var wire 8 [ control_id [7:0] $end
$var wire 32 \ branch_addr [31:0] $end
$var wire 1 ] Zero $end
$var wire 5 ^ Write_Register_mem [4:0] $end
$var wire 5 _ Write_Register_ex [4:0] $end
$var wire 5 ` Write_Register [4:0] $end
$var wire 32 a Write_Data [31:0] $end
$var wire 2 b WB_mem [1:0] $end
$var wire 2 c WB_id [1:0] $end
$var wire 2 d WB_ex [1:0] $end
$var wire 32 e Sign_extend_o [31:0] $end
$var wire 1 f Reg_Write $end
$var wire 1 g RegDst $end
$var wire 2 h RT_Src_Ctr [1:0] $end
$var wire 2 i RS_Src_Ctr [1:0] $end
$var wire 1 j MemtoReg $end
$var wire 1 k MemWrite $end
$var wire 1 l MemStall $end
$var wire 1 m MemRead $end
$var wire 2 n M_id [1:0] $end
$var wire 2 o M_ex [1:0] $end
$var wire 1 p IDEX_flush $end
$var wire 4 q EX_id [3:0] $end
$var wire 32 r ALU_mem [31:0] $end
$var wire 32 s ALU_i2 [31:0] $end
$var wire 32 t ALU_ex [31:0] $end
$var wire 32 u ALU_data [31:0] $end
$var wire 1 v ALUSrc $end
$var wire 2 w ALUOp [1:0] $end
$var wire 3 x ALUCtrl [2:0] $end
$scope module ALU $end
$var wire 32 y sub_ab [31:0] $end
$var wire 1 z slt $end
$var wire 1 { oflow_sub $end
$var wire 32 | data2_i [31:0] $end
$var wire 32 } data1_i [31:0] $end
$var wire 3 ~ ALUCtrl_i [2:0] $end
$var reg 1 ] Zero_o $end
$var reg 32 !" data_o [31:0] $end
$upscope $end
$scope module ALU_Control $end
$var wire 2 "" ALUOp_i [1:0] $end
$var wire 6 #" funct_i [5:0] $end
$var reg 3 $" ALUCtrl_o [2:0] $end
$upscope $end
$scope module Add_PC $end
$var wire 32 %" data2_in [31:0] $end
$var wire 32 &" data_o [31:0] $end
$var wire 32 '" data1_in [31:0] $end
$upscope $end
$scope module Add_imm $end
$var wire 32 (" data2_in [31:0] $end
$var wire 32 )" data_o [31:0] $end
$var wire 32 *" data1_in [31:0] $end
$upscope $end
$scope module Control $end
$var wire 6 +" Op_i [5:0] $end
$var wire 8 ," Bus_o [7:0] $end
$var reg 2 -" ALUOp_o [1:0] $end
$var reg 1 ." ALUSrc_o $end
$var reg 1 Z Branch_o $end
$var reg 1 /" ExtOp_o $end
$var reg 1 Q Jump_o $end
$var reg 1 0" MemRead_o $end
$var reg 1 1" MemWrite_o $end
$var reg 1 2" MemtoReg_o $end
$var reg 1 3" RegDst_o $end
$var reg 1 4" RegWrite_o $end
$upscope $end
$scope module EXMEM $end
$var wire 1 5" clear $end
$var wire 1 ' clk $end
$var wire 73 6" in [72:0] $end
$var wire 1 l hold $end
$var reg 73 7" out [72:0] $end
$upscope $end
$scope module Forwarding_unit $end
$var wire 5 8" MEM_Rd_i [4:0] $end
$var wire 1 9" MEM_W_i $end
$var wire 5 :" RS_i [4:0] $end
$var wire 5 ;" RT_i [4:0] $end
$var wire 5 <" WB_Rd_i [4:0] $end
$var wire 1 f WB_W_i $end
$var wire 1 ' clk_i $end
$var reg 2 =" RS_Src_o [1:0] $end
$var reg 2 >" RT_Src_o [1:0] $end
$upscope $end
$scope module HazDetect_unit $end
$var wire 1 ?" MemRead_i $end
$var wire 5 @" Prev_RT_i [4:0] $end
$var wire 10 A" RSRT_i [9:0] $end
$var wire 1 ' clk_i $end
$var wire 5 B" Cur_RT [4:0] $end
$var wire 5 C" Cur_RS [4:0] $end
$var reg 1 p IDEXWrite_o $end
$var reg 1 P IFIDWrite_o $end
$var reg 1 F PCWrite_o $end
$upscope $end
$scope module IDEX $end
$var wire 1 P clear $end
$var wire 1 ' clk $end
$var wire 119 D" in [118:0] $end
$var wire 1 l hold $end
$var reg 119 E" out [118:0] $end
$upscope $end
$scope module IFID $end
$var wire 1 2 clear $end
$var wire 1 ' clk $end
$var wire 1 F" hold $end
$var wire 64 G" in [63:0] $end
$var reg 64 H" out [63:0] $end
$upscope $end
$scope module Instruction_Memory $end
$var wire 32 I" instr_o [31:0] $end
$var wire 32 J" addr_i [31:0] $end
$upscope $end
$scope module MEMWB $end
$var wire 1 K" clear $end
$var wire 1 ' clk $end
$var wire 71 L" in [70:0] $end
$var wire 1 l hold $end
$var reg 71 M" out [70:0] $end
$upscope $end
$scope module MUX32_3in_rs $end
$var wire 32 N" preALU_i [31:0] $end
$var wire 32 O" reg_i [31:0] $end
$var wire 2 P" select_i [1:0] $end
$var wire 32 Q" DMorALU_i [31:0] $end
$var reg 32 R" data_o [31:0] $end
$upscope $end
$scope module MUX32_3in_rt $end
$var wire 32 S" preALU_i [31:0] $end
$var wire 32 T" reg_i [31:0] $end
$var wire 2 U" select_i [1:0] $end
$var wire 32 V" DMorALU_i [31:0] $end
$var reg 32 W" data_o [31:0] $end
$upscope $end
$scope module MUX8 $end
$var wire 8 X" data1_i [7:0] $end
$var wire 8 Y" data2_i [7:0] $end
$var wire 1 p select_i $end
$var wire 8 Z" data_o [7:0] $end
$upscope $end
$scope module MUX_ALUSrc $end
$var wire 32 [" data1_i [31:0] $end
$var wire 32 \" data2_i [31:0] $end
$var wire 1 v select_i $end
$var wire 32 ]" data_o [31:0] $end
$upscope $end
$scope module MUX_BranchPC $end
$var wire 32 ^" data1_i [31:0] $end
$var wire 32 _" data2_i [31:0] $end
$var wire 1 4 select_i $end
$var wire 32 `" data_o [31:0] $end
$upscope $end
$scope module MUX_JumpPC $end
$var wire 32 a" data1_i [31:0] $end
$var wire 32 b" data2_i [31:0] $end
$var wire 1 3 select_i $end
$var wire 32 c" data_o [31:0] $end
$upscope $end
$scope module MUX_MemtoReg $end
$var wire 32 d" data1_i [31:0] $end
$var wire 32 e" data2_i [31:0] $end
$var wire 1 j select_i $end
$var wire 32 f" data_o [31:0] $end
$upscope $end
$scope module MUX_RegDst $end
$var wire 5 g" data1_i [4:0] $end
$var wire 5 h" data2_i [4:0] $end
$var wire 1 g select_i $end
$var wire 5 i" data_o [4:0] $end
$upscope $end
$scope module PC $end
$var wire 1 ' clk_i $end
$var wire 1 j" pcEnable_i $end
$var wire 32 k" pc_i [31:0] $end
$var wire 1 ( rst_i $end
$var wire 1 l" stall_i $end
$var wire 1 ) start_i $end
$var reg 32 m" pc_o [31:0] $end
$upscope $end
$scope module Registers $end
$var wire 5 n" RDaddr_i [4:0] $end
$var wire 32 o" RDdata_i [31:0] $end
$var wire 5 p" RSaddr_i [4:0] $end
$var wire 5 q" RTaddr_i [4:0] $end
$var wire 1 f RegWrite_i $end
$var wire 1 ' clk_i $end
$var reg 32 r" RSdata_o [31:0] $end
$var reg 32 s" RTdata_o [31:0] $end
$upscope $end
$scope module Shift_32 $end
$var wire 32 t" data_o [31:0] $end
$var wire 32 u" data_i [31:0] $end
$upscope $end
$scope module Sign_Extend $end
$var wire 16 v" data_i [15:0] $end
$var wire 32 w" data_o [31:0] $end
$upscope $end
$scope module dcache $end
$var wire 1 x" cache_dirty $end
$var wire 1 y" cache_sram_enable $end
$var wire 5 z" cache_sram_index [4:0] $end
$var wire 1 {" cache_sram_write $end
$var wire 1 ' clk_i $end
$var wire 256 |" mem_data_o [255:0] $end
$var wire 1 $ mem_enable_o $end
$var wire 1 # mem_write_o $end
$var wire 1 m p1_MemRead_i $end
$var wire 1 k p1_MemWrite_i $end
$var wire 32 }" p1_addr_i [31:0] $end
$var wire 32 ~" p1_data_i [31:0] $end
$var wire 32 !# p1_data_o [31:0] $end
$var wire 1 "# p1_req $end
$var wire 1 l p1_stall_o $end
$var wire 256 ## r_hit_data [255:0] $end
$var wire 1 ( rst_i $end
$var wire 1 $# write_hit $end
$var wire 1 %# sram_valid $end
$var wire 22 &# sram_tag [21:0] $end
$var wire 1 '# sram_dirty $end
$var wire 24 (# sram_cache_tag [23:0] $end
$var wire 256 )# sram_cache_data [255:0] $end
$var wire 22 *# p1_tag [21:0] $end
$var wire 5 +# p1_offset [4:0] $end
$var wire 5 ,# p1_index [4:0] $end
$var wire 256 -# mem_data_i [255:0] $end
$var wire 32 .# mem_addr_o [31:0] $end
$var wire 1 " mem_ack_i $end
$var wire 1 /# hit $end
$var wire 24 0# cache_sram_tag [23:0] $end
$var wire 256 1# cache_sram_data [255:0] $end
$var reg 1 2# cache_we $end
$var reg 1 3# mem_enable $end
$var reg 1 4# mem_write $end
$var reg 32 5# p1_data [31:0] $end
$var reg 3 6# state [2:0] $end
$var reg 256 7# w_hit_data [255:0] $end
$var reg 1 8# write_back $end
$var integer 32 9# i [31:0] $end
$scope module dcache_data_sram $end
$var wire 5 :# addr_i [4:0] $end
$var wire 1 ' clk_i $end
$var wire 256 ;# data_i [255:0] $end
$var wire 1 y" enable_i $end
$var wire 1 {" write_i $end
$var wire 256 <# data_o [255:0] $end
$upscope $end
$scope module dcache_tag_sram $end
$var wire 5 =# addr_i [4:0] $end
$var wire 1 ' clk_i $end
$var wire 24 ># data_i [23:0] $end
$var wire 1 y" enable_i $end
$var wire 1 {" write_i $end
$var wire 24 ?# data_o [23:0] $end
$upscope $end
$upscope $end
$scope module sh_26_28 $end
$var wire 26 @# data_i [25:0] $end
$var reg 28 A# data_o [27:0] $end
$upscope $end
$upscope $end
$scope module Data_Memory $end
$var wire 1 " ack_o $end
$var wire 32 B# addr_i [31:0] $end
$var wire 1 ' clk_i $end
$var wire 256 C# data_i [255:0] $end
$var wire 256 D# data_o [255:0] $end
$var wire 1 $ enable_i $end
$var wire 1 ( rst_i $end
$var wire 1 # write_i $end
$var wire 27 E# addr [26:0] $end
$var reg 1 F# ack $end
$var reg 4 G# count [3:0] $end
$var reg 256 H# data [255:0] $end
$var reg 1 I# ok $end
$var reg 2 J# state [1:0] $end
$upscope $end
$upscope $end
$enddefinitions $end
#0
$dumpvars
b0 J#
0I#
bx H#
b0 G#
0F#
bx E#
bx D#
bx C#
bx00000 B#
bx A#
bx @#
bx ?#
b1xxxxxxxxxxxxxxxxxxxxxxx >#
bx =#
bx <#
bx ;#
bx :#
bx 9#
08#
bx 7#
b0 6#
bx 5#
04#
03#
02#
bx 1#
b1xxxxxxxxxxxxxxxxxxxxxxx 0#
x/#
bx00000 .#
bx -#
bx ,#
bx +#
bx *#
bx )#
bx (#
x'#
bx &#
x%#
x$#
bx ##
x"#
bx !#
bx ~"
bx }"
bx |"
x{"
bx z"
xy"
xx"
b0xxxxxxxxxxxxxxxx w"
bx v"
b0xxxxxxxxxxxxxxxx u"
b0xxxxxxxxxxxxxxxx00 t"
bx s"
bx r"
bx q"
bx p"
bx o"
bx n"
b0 m"
xl"
b100 k"
1j"
bx i"
bx h"
bx g"
bx f"
bx e"
bx d"
b100 c"
b0xxxxxxxxxxxxxxxxxxxxxxxxxxxx b"
b100 a"
b100 `"
bx _"
b100 ^"
bx ]"
bx \"
bx ["
bx Z"
b0 Y"
bx X"
bx W"
bx V"
bx U"
bx T"
bx S"
bx R"
bx Q"
bx P"
bx O"
bx N"
bx M"
bx L"
0K"
b0 J"
b100000000010000000000000000000 I"
bx H"
b10000100000000010000000000000000000 G"
xF"
bx E"
bx0000000000000000xxxxxxxxxxxxxxxxxxxxxxxxxxxxxxx D"
bx C"
bx B"
bx A"
bx @"
x?"
bx >"
bx ="
bx <"
bx ;"
bx :"
x9"
bx 8"
bx 7"
bx 6"
05"
x4"
x3"
x2"
x1"
x0"
x/"
x."
bx -"
bx ,"
bx +"
b0xxxxxxxxxxxxxxxx00 *"
bx )"
bx ("
b0 '"
b100 &"
b100 %"
bx $"
bx #"
bx ""
bx !"
bx ~
bx }
bx |
x{
xz
bx y
bx x
bx w
xv
bx u
bx t
bx s
bx r
bx q
xp
bx o
bx n
xm
xl
xk
xj
bx i
bx h
xg
xf
bx e
bx d
bx c
bx b
bx a
bx `
bx _
bx ^
x]
b100 \
bx [
0Z
bx Y
bx X
bx W
xV
bx U
b100000000010000000000000000000 T
bx S
b0 R
0Q
xP
bx00000 O
bx N
bx M
bx L
bx K
b100 J
bx I
b100 H
bx G
xF
bx E
bx D
bx C
bx B
bx A
bx @
bx ?
bx >
bx =
bx <
bx ;
bx :
b0xxxxxxxxxxxxxxxxxxxxxxxxxxxx 9
bx 8
bx 7
b0xxxxxxxxxxxxxxxx 6
b0xxxxxxxxxxxxxxxx00 5
04
03
02
b101 1
b11 0
b100000 /
b1 .
bx -
bx ,
x+
bx *
0)
0(
0'
bx00000 &
bx %
0$
0#
0"
bx !
$end
#12
1)
1(
#25
b1 c
b0 n
b1100 q
1V
b11000001 Z"
0p
0P
0F
b10 -"
0/"
00"
01"
14"
02"
1."
b11000001 [
b11000001 ,"
b11000001 X"
03"
b0 C"
b1000 B"
b0 @
b0 s"
b0 B
b0 r"
b100 8
b100 )"
b100 _"
b0 5
b0 *"
b0 t"
b1000000000000000000000 9
b1000000000000000000000 b"
b1000000000000000000000 :
b1000000000000000000000 A#
b1000 I
b1000 +"
b1000 =
b1000 A"
b0 ?
b0 p"
b1000 <
b1000 q"
b0 E
b1001100000000000000000000000000000000000000000000000000000000000000000000000000000000000000000000000000000000100000000 D"
b0 6
b0 u"
b0 w"
b0 U
b0 v"
b0 7
b10000000000000000000 @#
b1000 J
b1000 c"
b1000 k"
b100000000010000000000000000000 S
b100 G
b100 ("
b0xxxxxxxxxxxxxxxx e
b0xxxxxxxxxxxxxxxx \"
b10101100000010000000000000000000 T
b10101100000010000000000000000000 I"
b1000 \
b1000 `"
b1000 a"
b10000100000000010000000000000000000 H"
bx0000000000000000xxxxxxxxxxxxxxxxxxxxxxxxxxxxxxx E"
b100010101100000010000000000000000000 G"
b1000 H
b1000 &"
b1000 ^"
b100 R
b100 '"
b100 J"
b100 m"
b10 .
1'
#50
0'
#75
0z
0{
b0 c
b1 n
b11000000000000000000000000000000000000000000000000000000000000000000000000000000000000000000000000000000000100000000 D"
b1000 q
b0 t
b0 !"
b10000100 Z"
b0 K
b0 W"
b0 ["
b0 y
b0 L
b0 }
b0 R"
b0 -"
1/"
11"
b10000100 [
b10000100 ,"
b10000100 X"
04"
b0 h
b0 >"
b0 U"
b1000 _
b1000 i"
b0 i
b0 ="
b0 P"
b0 #"
b0 s
b0 |
b0 ]"
b10 x
b10 ~
b10 $"
0?"
b101011 I
b101011 +"
b1100 J
b1100 c"
b1100 k"
b0 D
b0 h"
b1000 ;
b1000 ;"
b1000 @"
b1000 g"
b0 >
b0 :"
b0 e
b0 \"
b0 A
b0 T"
b0 C
b0 O"
0g
b10 w
b10 ""
1v
b0 o
b100000000000000000000000000000000000000000000000000000000000000000001000 6"
b1 d
b10101100000010000000000000000000 S
b1000 8
b1000 )"
b1000 _"
b1000 G
b1000 ("
b100000000010000001000100010001 T
b100000000010000001000100010001 I"
b1100 \
b1100 `"
b1100 a"
b1001100000000000000000000000000000000000000000000000000000000000000000000000000000000000000000000000000000000100000000 E"
b100010101100000010000000000000000000 H"
b110000100000000010000001000100010001 G"
b1100 H
b1100 &"
b1100 ^"
b1000 R
b1000 '"
b1000 J"
b1000 m"
b11 .
1'
#100
0'
#125
0/#
b1 c
b0 n
b1100 q
b0 E#
b11000001 Z"
0F"
0l"
b0 7#
b0 &#
0'#
0%#
b10 -"
0/"
01"
b11000001 [
b11000001 ,"
b11000001 X"
14"
b100010001000100 5
b100010001000100 *"
b100010001000100 t"
b1000000100010001000100 9
b1000000100010001000100 b"
b1000000100010001000100 :
b1000000100010001000100 A#
b0 &
b0 O
b0 .#
b0 B#
0{"
0l
b0 ##
b0 %
b0 M
b0 |"
b0 C#
b0 )#
b0 <#
b0 (#
b0 ?#
b1000 I
b1000 +"
b10 E
b1001100000000000000000000000000000000000000000000000000000000000000000000000000000000000001000100010001000000100000010 D"
b1000100010001 6
b1000100010001 u"
b1000100010001 w"
b1000100010001 U
b1000100010001 v"
b100 7
b10000001000100010001 @#
b10 h
b10 >"
b10 U"
b100000 9#
b0 +#
b0 z"
b0 :#
b0 =#
b0 ,#
b0 *#
b100000000000000000000000 0#
b100000000000000000000000 >#
0x"
0$#
0y"
0"#
19"
b10000 J
b10000 c"
b10000 k"
b100000000010000001000100010001 S
b100010001010000 8
b100010001010000 )"
b100010001010000 _"
b1100 G
b1100 ("
b0 w
b0 ""
b1 o
b1000000000000000000000000000000000000000000000000000000000000000001000 6"
b0 d
b1000 ^
b1000 8"
b0 Y
b0 ~"
b0 r
b0 N"
b0 S"
b0 }"
0k
0m
b1xxxxxxxxxxxxxxxxxxxxxxxxxxxxxxxx0000000000000000000000000000000001000 L"
b1 b
b10101100000010000000000000000100 T
b10101100000010000000000000000100 I"
b10000 \
b10000 `"
b10000 a"
b110000100000000010000001000100010001 H"
b11000000000000000000000000000000000000000000000000000000000000000000000000000000000000000000000000000000000100000000 E"
b100000000000000000000000000000000000000000000000000000000000000000001000 7"
b1000010101100000010000000000000000100 G"
b10000 H
b10000 &"
b10000 ^"
b1100 R
b1100 '"
b1100 J"
b1100 m"
b100 .
1'
#150
0'
#175
1z
1{
b0 c
b1 n
b1000 q
1F"
1l"
b10000100 Z"
1l
b1000100010001 t
b1000100010001 !"
b0 -"
1/"
11"
b10000100 [
b10000100 ,"
b10000100 X"
04"
b10000 5
b10000 *"
b10000 t"
b1000000000000000010000 9
b1000000000000000010000 b"
b1000000000000000010000 :
b1000000000000000010000 A#
b0 a
b0 Q"
b0 V"
b0 f"
b0 o"
b0 h
b0 >"
b0 U"
1y"
1"#
09"
b10001 #"
b11111111111111111110111011101111 y
b1000100010001 s
b1000100010001 |
b1000100010001 ]"
b101011 I
b101011 +"
b0 E
b11000000000000000000000000000000000000000000000000000000000000000000000000000000000000000000000000100000000100000000 D"
b100 6
b100 u"
b100 w"
b100 U
b100 v"
b0 7
b10000000000000000100 @#
b10100 J
b10100 c"
b10100 k"
b1000 `
b1000 <"
b1000 n"
b0 u
b0 d"
1f
0j
1k
b0xxxxxxxxxxxxxxxxxxxxxxxxxxxxxxxx0000000000000000000000000000000001000 L"
b0 b
b10 D
b10 h"
b1000100010001 e
b1000100010001 \"
b10 w
b10 ""
b0 o
b100000000000000000000010001000100010000000000000000000000000000000001000 6"
b1 d
b10101100000010000000000000000100 S
b100000 8
b100000 )"
b100000 _"
b10000 G
b10000 ("
b100000000010000010001000100010 T
b100000000010000010001000100010 I"
b10100 \
b10100 `"
b10100 a"
b1xxxxxxxxxxxxxxxxxxxxxxxxxxxxxxxx0000000000000000000000000000000001000 M"
b1000000000000000000000000000000000000000000000000000000000000000001000 7"
b1001100000000000000000000000000000000000000000000000000000000000000000000000000000000000001000100010001000000100000010 E"
b1000010101100000010000000000000000100 H"
b1010000100000000010000010001000100010 G"
b10100 H
b10100 &"
b10100 ^"
b10000 R
b10000 '"
b10000 J"
b10000 m"
b101 .
0+
1'
#200
0'
#225
b100 6#
b110 .
1+
1'
#250
0'
#275
b1 6#
1$
13#
b111 .
1'
#300
0'
#325
b1 J#
b1 G#
b1000 .
1'
#350
0'
#375
b10 G#
b1001 .
1'
#400
0'
#425
b11 G#
b1010 .
1'
#450
0'
#475
b100 G#
b1011 .
1'
#500
0'
#525
b101 G#
b1100 .
1'
#550
0'
#575
b110 G#
b1101 .
1'
#600
0'
#625
b10 J#
1I#
b1110 .
1'
#650
0'
#675
b11 J#
1"
1F#
0I#
b0 G#
b101 1#
b101 ;#
b1111 .
b101 !
b101 N
b101 -#
b101 D#
b101 H#
1'
#700
0'
#725
1{"
b0 J#
0"
0F#
b10 6#
12#
b10000 .
1'
#750
0'
#775
b0 1#
b0 ;#
0F"
0l"
0l
b110000000000000000000000 0#
b110000000000000000000000 >#
1x"
1$#
1/#
b100000 9#
b0 7#
1%#
b101 ##
b101 %
b101 M
b101 |"
b101 C#
b101 )#
b101 <#
b100000000000000000000000 (#
b100000000000000000000000 ?#
1{"
b0 6#
02#
0$
03#
b1 J#
b1 G#
b10001 .
1'
#800
0'
#825
b1 c
b0 n
b1100 q
b10001000 E#
b101 1#
b101 ;#
b11000001 Z"
0/#
0%#
b1000100010001 K
b1000100010001 W"
b1000100010001 ["
b10 -"
0/"
01"
b11000001 [
b11000001 ,"
b11000001 X"
14"
b1000100010001000 5
b1000100010001000 *"
b1000100010001000 t"
b1000001000100010001000 9
b1000001000100010001000 b"
b1000001000100010001000 :
b1000001000100010001000 A#
b100 t
b100 !"
b1000100000000 &
b1000100000000 O
b1000100000000 .#
b1000100000000 B#
0{"
b10 h
b10 >"
b10 U"
b1000 I
b1000 +"
b100 E
b1001100000000000000000000000000000000000000000000000000000000000000000000000000000000000010001000100010000000100000100 D"
b10001000100010 6
b10001000100010 u"
b10001000100010 w"
b10001000100010 U
b10001000100010 v"
b1000 7
b10000010001000100010 @#
b100 #"
b11111111111111111111111111111100 y
b100 s
b100 |
b100 ]"
b10001 +#
b1000 z"
b1000 :#
b1000 =#
b1000 ,#
b100 *#
0y"
0"#
b100000000000000000000100 0#
b100000000000000000000100 >#
0x"
0$#
19"
0'#
b0 W
b0 !#
b0 5#
b100000 9#
b11000 J
b11000 c"
b11000 k"
b100000000010000010001000100010 S
b1000100010011100 8
b1000100010011100 )"
b1000100010011100 _"
b10100 G
b10100 ("
b0 D
b0 h"
b100 e
b100 \"
b0 w
b0 ""
b1 o
b1000000000000000000000000000001000000000000000000000100010001000101000 6"
b0 d
b1000100010001 r
b1000100010001 N"
b1000100010001 S"
b1000100010001 }"
0k
b1000000000000000000000000000000000000000000000000000100010001000101000 L"
b1 b
b0 (#
b0 ?#
b0 ##
b0 %
b0 M
b0 |"
b0 C#
b0 )#
b0 <#
0f
b10101100000010000000000000001000 T
b10101100000010000000000000001000 I"
b11000 \
b11000 `"
b11000 a"
b1010000100000000010000010001000100010 H"
b11000000000000000000000000000000000000000000000000000000000000000000000000000000000000000000000000100000000100000000 E"
b100000000000000000000010001000100010000000000000000000000000000000001000 7"
b0xxxxxxxxxxxxxxxxxxxxxxxxxxxxxxxx0000000000000000000000000000000001000 M"
b10 G#
b1100010101100000010000000000000001000 G"
b11000 H
b11000 &"
b11000 ^"
b10100 R
b10100 '"
b10100 J"
b10100 m"
b10010 .
0+
1'
#850
0'
#875
b100010001000100000000000000000000000000000000 7#
1{"
b100010001000100000000000000000000000000000000 1#
b100010001000100000000000000000000000000000000 ;#
1x"
1$#
1/#
b0 E#
b0 c
b1 n
b1000 q
0F"
0l"
1'#
1%#
b10000100 Z"
b0 &
b0 O
b0 .#
b0 B#
0l
b110000000000000000000000 (#
b110000000000000000000000 ?#
b10001000100010 t
b10001000100010 !"
b0 -"
1/"
11"
b10000100 [
b10000100 ,"
b10000100 X"
04"
b100000 5
b100000 *"
b100000 t"
b1000000000000000100000 9
b1000000000000000100000 b"
b1000000000000000100000 :
b1000000000000000100000 A#
b1000100010001 a
b1000100010001 Q"
b1000100010001 V"
b1000100010001 f"
b1000100010001 o"
b0 h
b0 >"
b0 U"
b100000 9#
b0 K
b0 W"
b0 ["
b100 +#
b0 z"
b0 :#
b0 =#
b0 ,#
b110000000000000000000000 0#
b110000000000000000000000 >#
b0 *#
1y"
1"#
09"
b100010 #"
b11111111111111111101110111011110 y
b10001000100010 s
b10001000100010 |
b10001000100010 ]"
b101011 I
b101011 +"
b0 E
b11000000000000000000000000000000000000000000000000000000000000000000000000000000000000000000000001000000000100000000 D"
b1000 6
b1000 u"
b1000 w"
b1000 U
b1000 v"
b0 7
b10000000000000001000 @#
b11100 J
b11100 c"
b11100 k"
b1000100010001 u
b1000100010001 d"
b0 X
b0 e"
1f
b1000100010001 Y
b1000100010001 ~"
b100 r
b100 N"
b100 S"
b100 }"
1k
b10001000 L"
b0 b
b100 D
b100 h"
b10001000100010 e
b10001000100010 \"
b10 w
b10 ""
b0 o
b100000000000000000000100010001000100000000000000000000000000000000001000 6"
b1 d
b10101100000010000000000000001000 S
b111000 8
b111000 )"
b111000 _"
b11000 G
b11000 ("
b100000000010000011001100110011 T
b100000000010000011001100110011 I"
b11100 \
b11100 `"
b11100 a"
b1000000000000000000000000000000000000000000000000000100010001000101000 M"
b1000000000000000000000000000001000000000000000000000100010001000101000 7"
b1001100000000000000000000000000000000000000000000000000000000000000000000000000000000000010001000100010000000100000100 E"
b1100010101100000010000000000000001000 H"
b1110000100000000010000011001100110011 G"
b11100 H
b11100 &"
b11100 ^"
b11000 R
b11000 '"
b11000 J"
b11000 m"
b11 G#
b10011 .
1'
#900
0V
b11000000000000000000000000000000000000000000000000000000100010001000100000000000000000000000000001000000000100000000 D"
b1000100010001 @
b1000100010001 s"
0'
#925
b1 c
b0 n
b1100 q
b100010001 E#
b11000001 Z"
b101 1#
b101 ;#
0/#
0'#
0%#
b10 -"
0/"
01"
b11000001 [
b11000001 ,"
b11000001 X"
14"
b1100110011001100 5
b1100110011001100 *"
b1100110011001100 t"
b1000001100110011001100 9
b1000001100110011001100 b"
b1000001100110011001100 :
b1000001100110011001100 A#
b1000 t
b1000 !"
b0 7#
b10001000100000 &
b10001000100000 O
b10001000100000 .#
b10001000100000 B#
b0 (#
b0 ?#
0{"
b10 h
b10 >"
b10 U"
b1000 I
b1000 +"
b110 E
b1001100000000000000000000000000000000000000000000000000000100010001000100000000000000000011001100110011000000100000110 D"
b11001100110011 6
b11001100110011 u"
b11001100110011 w"
b11001100110011 U
b11001100110011 v"
b1100 7
b10000011001100110011 @#
b1000 #"
b11111111111111111111111111111000 y
b1000 s
b1000 |
b1000 ]"
b10001000100010 K
b10001000100010 W"
b10001000100010 ["
b10 +#
b10001 z"
b10001 :#
b10001 =#
b10001 ,#
b1000 *#
0y"
0"#
b100000000000000000001000 0#
b100000000000000000001000 >#
0x"
0$#
19"
b0 W
b0 !#
b0 5#
b100000 9#
b100 a
b100 Q"
b100 V"
b100 f"
b100 o"
b100000 J
b100000 c"
b100000 k"
b100000000010000011001100110011 S
b1100110011101000 8
b1100110011101000 )"
b1100110011101000 _"
b11100 G
b11100 ("
b0 D
b0 h"
b1000 e
b1000 \"
b1000100010001 A
b1000100010001 T"
b0 w
b0 ""
b1 o
b1000000000000000000000000000010000000000000000000001000100010001001000 6"
b0 d
b0 Y
b0 ~"
b10001000100010 r
b10001000100010 N"
b10001000100010 S"
b10001000100010 }"
0k
b1000000000000000000000000000000000000000000000000001000100010001001000 L"
b1 b
b0 ##
b0 %
b0 M
b0 |"
b0 C#
b0 )#
b0 <#
b100 u
b100 d"
0f
b10101100000010000000000000001100 T
b10101100000010000000000000001100 I"
b100000 \
b100000 `"
b100000 a"
b1110000100000000010000011001100110011 H"
b11000000000000000000000000000000000000000000000000000000100010001000100000000000000000000000000001000000000100000000 E"
b100000000000000000000100010001000100000000000000000000000000000000001000 7"
b10001000 M"
b100 G#
b10000010101100000010000000000000001100 G"
b100000 H
b100000 &"
b100000 ^"
b11100 R
b11100 '"
b11100 J"
b11100 m"
b10100 .
1'
#950
0'
