src/wave.vcd
$date
	Thu Dec  1 03:39:39 2016
$end
$version
	Icarus Verilog
$end
$timescale
	1s
$end
$scope module TestBench $end
$var reg 1 ! Clk $end
$var reg 1 " Start $end
$var integer 32 # counter [31:0] $end
$var integer 32 $ flush [31:0] $end
$var integer 32 % i [31:0] $end
$var integer 32 & outfile [31:0] $end
$var integer 32 ' stall [31:0] $end
$scope module CPU $end
$var wire 1 ( beq_flush $end
$var wire 1 ! clk_i $end
$var wire 1 ) jump_reg $end
$var wire 1 * mux_branch $end
$var wire 1 " start_i $end
$var wire 32 + sign_ext_id_sh2 [31:0] $end
$var wire 32 , sign_ext_id [31:0] $end
$var wire 5 - shamt [4:0] $end
$var wire 32 . sh_addr [31:0] $end
$var wire 32 / sh_32 [31:0] $end
$var wire 28 0 sh_28_o [27:0] $end
$var wire 5 1 rt_ex [4:0] $end
$var wire 5 2 rt [4:0] $end
$var wire 10 3 rsrt [9:0] $end
$var wire 5 4 rs_ex [4:0] $end
$var wire 5 5 rs [4:0] $end
$var wire 32 6 read_data2_id [31:0] $end
$var wire 32 7 read_data2_ex [31:0] $end
$var wire 32 8 read_data1_id [31:0] $end
$var wire 32 9 read_data1_ex [31:0] $end
$var wire 5 : rd_ex [4:0] $end
$var wire 5 ; rd [4:0] $end
$var wire 1 < pc_flush $end
$var wire 32 = pc_4_ID [31:0] $end
$var wire 32 > pc_4 [31:0] $end
$var wire 6 ? opcode [5:0] $end
$var wire 32 @ next_pc [31:0] $end
$var wire 32 A muxRT_data_o [31:0] $end
$var wire 32 B muxRS_data_o [31:0] $end
$var wire 1 C lw_stall $end
$var wire 1 D jump $end
$var wire 32 E inst_addr [31:0] $end
$var wire 32 F inst_ID [31:0] $end
$var wire 32 G inst [31:0] $end
$var wire 16 H imm [15:0] $end
$var wire 1 I equal $end
$var wire 32 J dm_o [31:0] $end
$var wire 32 K dm_data [31:0] $end
$var wire 32 L dm_Write_Data [31:0] $end
$var wire 1 M ctrl_branch $end
$var wire 8 N control_id [7:0] $end
$var wire 32 O branch_addr [31:0] $end
$var wire 1 P Zero $end
$var wire 5 Q Write_Register_mem [4:0] $end
$var wire 5 R Write_Register_ex [4:0] $end
$var wire 5 S Write_Register [4:0] $end
$var wire 32 T Write_Data [31:0] $end
$var wire 2 U WB_mem [1:0] $end
$var wire 2 V WB_id [1:0] $end
$var wire 2 W WB_ex [1:0] $end
$var wire 32 X Sign_extend_o [31:0] $end
$var wire 1 Y Reg_Write $end
$var wire 1 Z RegDst $end
$var wire 2 [ RT_Src_Ctr [1:0] $end
$var wire 2 \ RS_Src_Ctr [1:0] $end
$var wire 1 ] MemtoReg $end
$var wire 1 ^ MemWrite $end
$var wire 1 _ MemRead $end
$var wire 2 ` M_id [1:0] $end
$var wire 2 a M_ex [1:0] $end
$var wire 1 b IDEX_flush $end
$var wire 4 c EX_id [3:0] $end
$var wire 32 d ALU_mem [31:0] $end
$var wire 32 e ALU_i2 [31:0] $end
$var wire 32 f ALU_ex [31:0] $end
$var wire 32 g ALU_data [31:0] $end
$var wire 1 h ALUSrc $end
$var wire 2 i ALUOp [1:0] $end
$var wire 3 j ALUCtrl [2:0] $end
$scope module ALU $end
$var wire 32 k sub_ab [31:0] $end
$var wire 1 l slt $end
$var wire 1 m oflow_sub $end
$var wire 32 n data2_i [31:0] $end
$var wire 32 o data1_i [31:0] $end
$var wire 3 p ALUCtrl_i [2:0] $end
$var reg 1 P Zero_o $end
$var reg 32 q data_o [31:0] $end
$upscope $end
$scope module ALU_Control $end
$var wire 2 r ALUOp_i [1:0] $end
$var wire 6 s funct_i [5:0] $end
$var reg 3 t ALUCtrl_o [2:0] $end
$upscope $end
$scope module Add_PC $end
$var wire 32 u data2_in [31:0] $end
$var wire 32 v data_o [31:0] $end
$var wire 32 w data1_in [31:0] $end
$upscope $end
$scope module Add_imm $end
$var wire 32 x data2_in [31:0] $end
$var wire 32 y data_o [31:0] $end
$var wire 32 z data1_in [31:0] $end
$upscope $end
$scope module Control $end
$var wire 6 { Op_i [5:0] $end
$var wire 8 | Bus_o [7:0] $end
$var reg 2 } ALUOp_o [1:0] $end
$var reg 1 ~ ALUSrc_o $end
$var reg 1 M Branch_o $end
$var reg 1 !" ExtOp_o $end
$var reg 1 D Jump_o $end
$var reg 1 "" MemRead_o $end
$var reg 1 #" MemWrite_o $end
$var reg 1 $" MemtoReg_o $end
$var reg 1 %" RegDst_o $end
$var reg 1 &" RegWrite_o $end
$upscope $end
$scope module EXMEM $end
$var wire 1 '" clear $end
$var wire 1 ! clk $end
$var wire 1 (" hold $end
$var wire 73 )" in [72:0] $end
$var reg 73 *" out [72:0] $end
$upscope $end
$scope module Forwarding_unit $end
$var wire 5 +" MEM_Rd_i [4:0] $end
$var wire 1 ," MEM_W_i $end
$var wire 5 -" RS_i [4:0] $end
$var wire 5 ." RT_i [4:0] $end
$var wire 5 /" WB_Rd_i [4:0] $end
$var wire 1 Y WB_W_i $end
$var wire 1 ! clk_i $end
$var reg 2 0" RS_Src_o [1:0] $end
$var reg 2 1" RT_Src_o [1:0] $end
$upscope $end
$scope module HazDetect_unit $end
$var wire 1 2" MemRead_i $end
$var wire 5 3" Prev_RT_i [4:0] $end
$var wire 10 4" RSRT_i [9:0] $end
$var wire 1 ! clk_i $end
$var wire 5 5" Cur_RT [4:0] $end
$var wire 5 6" Cur_RS [4:0] $end
$var reg 1 b IDEXWrite_o $end
$var reg 1 C IFIDWrite_o $end
$var reg 1 < PCWrite_o $end
$upscope $end
$scope module IDEX $end
$var wire 1 C clear $end
$var wire 1 ! clk $end
$var wire 1 7" hold $end
$var wire 119 8" in [118:0] $end
$var reg 119 9" out [118:0] $end
$upscope $end
$scope module IFID $end
$var wire 1 ( clear $end
$var wire 1 ! clk $end
$var wire 1 C hold $end
$var wire 64 :" in [63:0] $end
$var reg 64 ;" out [63:0] $end
$upscope $end
$scope module Instruction_Memory $end
$var wire 32 <" instr_o [31:0] $end
$var wire 32 =" addr_i [31:0] $end
$upscope $end
$scope module MEMWB $end
$var wire 1 >" clear $end
$var wire 1 ! clk $end
$var wire 1 ?" hold $end
$var wire 71 @" in [70:0] $end
$var reg 71 A" out [70:0] $end
$upscope $end
$scope module MUX32_3in_rs $end
$var wire 32 B" preALU_i [31:0] $end
$var wire 32 C" reg_i [31:0] $end
$var wire 2 D" select_i [1:0] $end
$var wire 32 E" DMorALU_i [31:0] $end
$var reg 32 F" data_o [31:0] $end
$upscope $end
$scope module MUX32_3in_rt $end
$var wire 32 G" preALU_i [31:0] $end
$var wire 32 H" reg_i [31:0] $end
$var wire 2 I" select_i [1:0] $end
$var wire 32 J" DMorALU_i [31:0] $end
$var reg 32 K" data_o [31:0] $end
$upscope $end
$scope module MUX8 $end
$var wire 8 L" data1_i [7:0] $end
$var wire 8 M" data2_i [7:0] $end
$var wire 1 b select_i $end
$var wire 8 N" data_o [7:0] $end
$upscope $end
$scope module MUX_ALUSrc $end
$var wire 32 O" data1_i [31:0] $end
$var wire 32 P" data2_i [31:0] $end
$var wire 1 h select_i $end
$var wire 32 Q" data_o [31:0] $end
$upscope $end
$scope module MUX_BranchPC $end
$var wire 32 R" data1_i [31:0] $end
$var wire 32 S" data2_i [31:0] $end
$var wire 1 * select_i $end
$var wire 32 T" data_o [31:0] $end
$upscope $end
$scope module MUX_JumpPC $end
$var wire 32 U" data1_i [31:0] $end
$var wire 32 V" data2_i [31:0] $end
$var wire 1 ) select_i $end
$var wire 32 W" data_o [31:0] $end
$upscope $end
$scope module MUX_MemtoReg $end
$var wire 32 X" data1_i [31:0] $end
$var wire 32 Y" data2_i [31:0] $end
$var wire 1 ] select_i $end
$var wire 32 Z" data_o [31:0] $end
$upscope $end
$scope module MUX_RegDst $end
$var wire 5 [" data1_i [4:0] $end
$var wire 5 \" data2_i [4:0] $end
$var wire 1 Z select_i $end
$var wire 5 ]" data_o [4:0] $end
$upscope $end
$scope module PC $end
$var wire 1 ! clk_i $end
$var wire 1 < flushPC_i $end
$var wire 32 ^" pc_i [31:0] $end
$var wire 1 " start_i $end
$var reg 32 _" pc_o [31:0] $end
$upscope $end
$scope module Registers $end
$var wire 5 `" RDaddr_i [4:0] $end
$var wire 32 a" RDdata_i [31:0] $end
$var wire 5 b" RSaddr_i [4:0] $end
$var wire 5 c" RTaddr_i [4:0] $end
$var wire 1 Y RegWrite_i $end
$var wire 1 ! clk_i $end
$var reg 32 d" RSdata_o [31:0] $end
$var reg 32 e" RTdata_o [31:0] $end
$upscope $end
$scope module Shift_32 $end
$var wire 32 f" data_o [31:0] $end
$var wire 32 g" data_i [31:0] $end
$upscope $end
$scope module Sign_Extend $end
$var wire 16 h" data_i [15:0] $end
$var wire 32 i" data_o [31:0] $end
$upscope $end
$scope module dm $end
$var wire 32 j" addr [31:0] $end
$var wire 1 ! clk $end
$var wire 1 _ rd $end
$var wire 32 k" wdata [31:0] $end
$var wire 1 ^ wr $end
$var reg 32 l" rdata [31:0] $end
$upscope $end
$scope module sh_26_28 $end
$var wire 26 m" data_i [25:0] $end
$var reg 28 n" data_o [27:0] $end
$upscope $end
$upscope $end
$upscope $end
$enddefinitions $end
#0
$dumpvars
bx n"
bx m"
bx l"
bx k"
bx j"
b0xxxxxxxxxxxxxxxx i"
bx h"
b0xxxxxxxxxxxxxxxx g"
b0xxxxxxxxxxxxxxxx00 f"
bx e"
bx d"
bx c"
bx b"
bx a"
bx `"
b0 _"
b100 ^"
bx ]"
bx \"
bx ["
bx Z"
bx Y"
bx X"
b100 W"
b0xxxxxxxxxxxxxxxxxxxxxxxxxxxx V"
b100 U"
b100 T"
bx S"
b100 R"
bx Q"
b0xxxxxxxxxxxxxxxx P"
bx O"
bx N"
b0 M"
bx L"
bx K"
bx J"
bx I"
bx H"
bx G"
bx F"
bx E"
bx D"
bx C"
bx B"
bx A"
bx @"
0?"
0>"
b0 ="
b100000000100000 <"
b100xxxxxxxxxxxxxxxxxxxxxxxxxxxxxxxx ;"
b10000000000000000000100000000100000 :"
bx0000000000000000xxxxxxxxxxxxxxxxxxxxxxxxxxxxxxx 9"
bx0000000000000000xxxxxxxxxxxxxxxxxxxxxxxxxxxxxxx 8"
07"
bx 6"
bx 5"
bx 4"
bx 3"
x2"
bx 1"
bx 0"
bx /"
bx ."
bx -"
x,"
bx +"
bx *"
bx )"
0("
0'"
x&"
x%"
x$"
x#"
x""
x!"
x~
bx }
bx |
bx {
b0xxxxxxxxxxxxxxxx00 z
bx y
b100 x
b0 w
b100 v
b100 u
bx t
bx s
bx r
bx q
bx p
bx o
bx n
xm
xl
bx k
bx j
bx i
xh
bx g
bx f
bx e
bx d
bx c
xb
bx a
bx `
x_
x^
x]
bx \
bx [
xZ
xY
b0xxxxxxxxxxxxxxxx X
bx W
bx V
bx U
bx T
bx S
bx R
bx Q
xP
b100 O
bx N
0M
bx L
bx K
bx J
xI
bx H
b100000000100000 G
bx F
b0 E
0D
xC
bx B
bx A
b100 @
bx ?
b100 >
b100 =
x<
bx ;
bx :
bx 9
bx 8
bx 7
bx 6
bx 5
bx 4
bx 3
bx 2
bx 1
bx 0
b0xxxxxxxxxxxxxxxxxxxxxxxxxxxx /
bx .
bx -
b0xxxxxxxxxxxxxxxx ,
b0xxxxxxxxxxxxxxxx00 +
0*
0)
0(
b0 '
b11 &
b100000 %
b0 $
b0 #
0"
1!
$end
#12
1"
#25
0!
#50
b1 V
b0 `
b111 c
1I
b1110001 N"
0b
0C
0<
b11 }
0!"
0""
0#"
1&"
0$"
0~
b1110001 N
b1110001 |
b1110001 L"
1%"
b0 6"
b0 5"
b0 6
b0 e"
b0 8
b0 d"
b10000000010000100 .
b10000000010000100 y
b10000000010000100 S"
b10000000010000000 +
b10000000010000000 z
b10000000010000000 f"
b10000000010000000 /
b10000000010000000 V"
b10000000010000000 0
b10000000010000000 n"
b0 ?
b0 {
b0 3
b0 4"
b0 5
b0 b"
b0 2
b0 c"
b1000 ;
b1000111000000000000000000000000000000000000000000000000000000000000000000000000000000000100000000100000000000000001000 8"
b100000000100000 ,
b100000000100000 g"
b100000000100000 i"
b100000000100000 H
b100000000100000 h"
b0 -
b100000000100000 m"
b1000 @
b1000 W"
b1000 ^"
b100000000100000 F
b100000000010010000000000001010 G
b100000000010010000000000001010 <"
b1000 O
b1000 T"
b1000 U"
b10000000000000000000100000000100000 ;"
b100000100000000010010000000000001010 :"
b1000 >
b1000 v
b1000 R"
b100 E
b100 w
b100 ="
b100 _"
b1 #
1!
#75
0!
#100
0l
0m
b1100 c
b0 f
b0 q
b11000001 N"
b0 k
b0 e
b0 n
b0 Q"
b10 }
1~
b11000001 N
b11000001 |
b11000001 L"
0%"
b1001 5"
b101000 +
b101000 z
b101000 f"
b1001000000000000101000 /
b1001000000000000101000 V"
b1001000000000000101000 0
b1001000000000000101000 n"
b0 A
b0 K"
b0 O"
b0 B
b0 o
b0 F"
b10 j
b10 p
b10 t
b1100 @
b1100 W"
b1100 ^"
b1000 ?
b1000 {
b1001 3
b1001 4"
b1001 2
b1001 c"
b0 ;
b1001100000000000000000000000000000000000000000000000000000000000000000000000000000000000000000000001010000000100100000 8"
b1010 ,
b1010 g"
b1010 i"
b1010 H
b1010 h"
b10010000000000001010 m"
b0 [
b0 1"
b0 I"
b1000 R
b1000 ]"
b0 \
b0 0"
b0 D"
b100000 s
02"
b10101101000000000000000000000000 G
b10101101000000000000000000000000 <"
b1100 O
b1100 T"
b1100 U"
b100000000010010000000000001010 F
b110000 .
b110000 y
b110000 S"
b1000 =
b1000 x
b1000 :
b1000 \"
b0 1
b0 ."
b0 3"
b0 ["
b0 4
b0 -"
b100000000100000 X
b100000000100000 P"
b0 7
b0 H"
b0 9
b0 C"
1Z
b11 i
b11 r
0h
b0 a
b100000000000000000000000000000000000000000000000000000000000000000001000 )"
b1 W
b110010101101000000000000000000000000 :"
b1100 >
b1100 v
b1100 R"
b1000 E
b1000 w
b1000 ="
b1000 _"
b100000100000000010010000000000001010 ;"
b1000111000000000000000000000000000000000000000000000000000000000000000000000000000000000100000000100000000000000001000 9"
b10 #
1!
#125
0!
#150
1l
1m
b0 V
b1 `
b1000 c
b1010 f
b1010 q
b10000100 N"
b11111111111111111111111111110110 k
b1010 e
b1010 n
b1010 Q"
b0 }
1!"
1#"
b10000100 N
b10000100 |
b10000100 L"
0&"
b1000 6"
b0 5"
b0 +
b0 z
b0 f"
b100000000000000000000000000 /
b100000000000000000000000000 V"
b100000000000000000000000000 0
b100000000000000000000000000 n"
1,"
b100000000000000000000000000000010100000000000000000000000000000000001001 )"
b1001 R
b1001 ]"
b1010 s
b101011 ?
b101011 {
b100000000 3
b100000000 4"
b1000 5
b1000 b"
b0 2
b0 c"
b11000000000000000000000000000000000000000000000000000000000000000000000000000000000000000000000000000010000000000000 8"
b0 ,
b0 g"
b0 i"
b0 H
b0 h"
b1000000000000000000000000 m"
b10000 @
b10000 W"
b10000 ^"
b1000 Q
b1000 +"
b0 L
b0 k"
b0 d
b0 B"
b0 G"
b0 j"
0^
0_
b1xxxxxxxxxxxxxxxxxxxxxxxxxxxxxxxx0000000000000000000000000000000001000 @"
b1 U
b0 :
b0 \"
b1001 1
b1001 ."
b1001 3"
b1001 ["
b1010 X
b1010 P"
0Z
b10 i
b10 r
1h
b10101101000000000000000000000000 F
b1100 .
b1100 y
b1100 S"
b1100 =
b1100 x
b10101101000010010000000000000100 G
b10101101000010010000000000000100 <"
b10000 O
b10000 T"
b10000 U"
b100000000000000000000000000000000000000000000000000000000000000000001000 *"
b1001100000000000000000000000000000000000000000000000000000000000000000000000000000000000000000000001010000000100100000 9"
b110010101101000000000000000000000000 ;"
b1000010101101000010010000000000000100 :"
b10000 >
b10000 v
b10000 R"
b1100 E
b1100 w
b1100 ="
b1100 _"
b11 #
1!
#175
0!
#200
0l
0m
b1001 5"
b10000 +
b10000 z
b10000 f"
b100001001000000000000010000 /
b100001001000000000000010000 V"
b100001001000000000000010000 0
b100001001000000000000010000 n"
b0 f
b0 q
b10100 @
b10100 W"
b10100 ^"
b100001001 3
b100001001 4"
b1001 2
b1001 c"
b11000000000000000000000000000000000000000000000000000000000000000000000000000000000000000000000000100010000100100000 8"
b100 ,
b100 g"
b100 i"
b100 H
b100 h"
b1000010010000000000000100 m"
b0 R
b0 ]"
b0 s
b0 k
b0 e
b0 n
b0 Q"
b0 T
b0 E"
b0 J"
b0 Z"
b0 a"
b1 \
b1 0"
b1 D"
b10001101000011010000000000000100 G
b10001101000011010000000000000100 <"
b10100 O
b10100 T"
b10100 U"
b10101101000010010000000000000100 F
b100000 .
b100000 y
b100000 S"
b10000 =
b10000 x
b0 1
b0 ."
b0 3"
b0 ["
b1000 4
b1000 -"
b0 X
b0 P"
b0 i
b0 r
b1 a
b1000000000000000000000000000000000000000000000000000000000000000000000 )"
b0 W
b1001 Q
b1001 +"
b1xxxxxxxxxxxxxxxxxxxxxxxxxxxxxxxx0000000000000000000000000000101001001 @"
b1010 d
b1010 B"
b1010 G"
b1010 j"
b1000 S
b1000 /"
b1000 `"
b0 g
b0 X"
1Y
0]
b1010010001101000011010000000000000100 :"
b10100 >
b10100 v
b10100 R"
b10000 E
b10000 w
b10000 ="
b10000 _"
b1000010101101000010010000000000000100 ;"
b11000000000000000000000000000000000000000000000000000000000000000000000000000000000000000000000000000010000000000000 9"
b100000000000000000000000000000010100000000000000000000000000000000001001 *"
b1xxxxxxxxxxxxxxxxxxxxxxxxxxxxxxxx0000000000000000000000000000000001000 A"
b100 #
1!
#225
0!
#250
1l
1m
b11 V
b10 `
b10001011 N"
b1010 A
b1010 K"
b1010 O"
b100 f
b100 q
1""
0#"
1&"
b10001011 N
b10001011 |
b10001011 L"
1$"
b1101 5"
b100001101000000000000010000 /
b100001101000000000000010000 V"
b100001101000000000000010000 0
b100001101000000000000010000 n"
b1010 T
b1010 E"
b1010 J"
b1010 Z"
b1010 a"
b0 \
b0 0"
b0 D"
0,"
b1 [
b1 1"
b1 I"
b1000000000000000000000000000001000000000000000000000000000000101001001 )"
b1001 R
b1001 ]"
b100 s
b11111111111111111111111111111100 k
b100 e
b100 n
b100 Q"
b100011 ?
b100011 {
b100001101 3
b100001101 4"
b11101000000000000000000000000000000000000000000000000000000000000000000000000000000000000000000000000100010000110100000 8"
b1101 2
b1101 c"
b1000011010000000000000100 m"
b11000 @
b11000 W"
b11000 ^"
b1001 S
b1001 /"
b1001 `"
b1010 g
b1010 X"
b0 Q
b0 +"
b0 d
b0 B"
b0 G"
b0 j"
1^
b0xxxxxxxxxxxxxxxxxxxxxxxxxxxxxxxx0000000000000000000000000000000000000 @"
b0 U
b1001 1
b1001 ."
b1001 3"
b1001 ["
b100 X
b100 P"
b10001101000011010000000000000100 F
b100100 .
b100100 y
b100100 S"
b10100 =
b10100 x
b1101010010111100000100000 G
b1101010010111100000100000 <"
b11000 O
b11000 T"
b11000 U"
b1xxxxxxxxxxxxxxxxxxxxxxxxxxxxxxxx0000000000000000000000000000101001001 A"
b1000000000000000000000000000000000000000000000000000000000000000000000 *"
b11000000000000000000000000000000000000000000000000000000000000000000000000000000000000000000000000100010000100100000 9"
b1010010001101000011010000000000000100 ;"
b1100000000001101010010111100000100000 :"
b11000 >
b11000 v
b11000 R"
b10100 E
b10100 w
b10100 ="
b10100 _"
b101 #
1!
#275
0!
#300
0I
b0 V
b0 `
b0 c
b0 N"
b11 }
0!"
0""
0$"
0~
b1110001 N
b1110001 |
b1110001 L"
1%"
b1101 6"
b1001 5"
b1010 6
b1010 e"
b11110000010000000 +
b11110000010000000 z
b11110000010000000 f"
b110101001011110000010000000 /
b110101001011110000010000000 V"
b110101001011110000010000000 0
b110101001011110000010000000 n"
b11100 @
b11100 W"
b11100 ^"
b0 ?
b0 {
b110101001 3
b110101001 4"
b1101 5
b1101 b"
b1001 2
b1001 c"
b1111 ;
b101000000000000000000111100000100000011010100101111 8"
b111100000100000 ,
b111100000100000 g"
b111100000100000 i"
b111100000100000 H
b111100000100000 h"
b1101010010111100000100000 m"
1b
1C
1<
b1101 R
b1101 ]"
12"
b0 A
b0 K"
b0 O"
b0 T
b0 E"
b0 J"
b0 Z"
b0 a"
b0 [
b0 1"
b0 I"
b100000000010100000000000001101 G
b100000000010100000000000001101 <"
b11100 O
b11100 T"
b11100 U"
b1101010010111100000100000 F
b11110000010011000 .
b11110000010011000 y
b11110000010011000 S"
b11000 =
b11000 x
b1101 1
b1101 ."
b1101 3"
b1101 ["
b10 a
b1110000000000000000000000000000001000000000000000000000000000000000001101 )"
b11 W
b1001 Q
b1001 +"
b1010 L
b1010 k"
b0xxxxxxxxxxxxxxxxxxxxxxxxxxxxxxxx0000000000000000000000000000010001001 @"
b100 d
b100 B"
b100 G"
b100 j"
b0 S
b0 /"
b0 `"
b0 g
b0 X"
0Y
b1110000100000000010100000000000001101 :"
b11100 >
b11100 v
b11100 R"
b11000 E
b11000 w
b11000 ="
b11000 _"
b1100000000001101010010111100000100000 ;"
b11101000000000000000000000000000000000000000000000000000000000000000000000000000000000000000000000000100010000110100000 9"
b1000000000000000000000000000001000000000000000000000000000000101001001 *"
b0xxxxxxxxxxxxxxxxxxxxxxxxxxxxxxxx0000000000000000000000000000000000000 A"
b110 #
1!
#325
0!
#350
b1010 J
b1010 l"
0l
0m
b1 V
b1000111000000000000000000000000000000000000000000000000000000000000101000000000000000000111100000100000011010100101111 8"
b111 c
b1110001 N"
b0 f
b0 q
b100 T
b100 E"
b100 J"
b100 Z"
b100 a"
1,"
0b
0C
0<
b0 R
b0 ]"
b0 s
b0 k
b0 e
b0 n
b0 Q"
02"
b1001 S
b1001 /"
b1001 `"
b100 g
b100 X"
b1101 Q
b1101 +"
b0 L
b0 k"
0^
1_
b11000000000000000000000000000010100000000000000000000000000000010001101 @"
b11 U
b0 1
b0 ."
b0 3"
b0 ["
b0 4
b0 -"
b0 X
b0 P"
0h
b0 a
b0 )"
b0 W
b0xxxxxxxxxxxxxxxxxxxxxxxxxxxxxxxx0000000000000000000000000000010001001 A"
b1110000000000000000000000000000001000000000000000000000000000000000001101 *"
b0 9"
b111 #
b1 '
1!
#375
0!
#400
b1100 c
1I
b11000001 N"
b10 }
1~
b11000001 N
b11000001 |
b11000001 L"
0%"
b0 6"
b1010 5"
b0 6
b0 e"
b110100 +
b110100 z
b110100 f"
b1010000000000000110100 /
b1010000000000000110100 V"
b1010000000000000110100 0
b1010000000000000110100 n"
b10100 f
b10100 q
b1010 e
b1010 n
b1010 Q"
b1010 T
b1010 E"
b1010 J"
b1010 Z"
b1010 a"
b100000 @
b100000 W"
b100000 ^"
b1000 ?
b1000 {
b1010 3
b1010 4"
b0 5
b0 b"
b1010 2
b1010 c"
b0 ;
b1001100000000000000000000000000000000000000000000000000000000000000000000000000000000000000000000001101000000101000000 8"
b1101 ,
b1101 g"
b1101 i"
b1101 H
b1101 h"
b10100000000000001101 m"
b1111 R
b1111 ]"
b100000 s
b0 k
b1010 B
b1010 o
b1010 F"
b1010 A
b1010 K"
b1010 O"
0,"
b1 \
b1 0"
b1 D"
b1001010010101100000011000 G
b1001010010101100000011000 <"
b100000 O
b100000 T"
b100000 U"
b100000000010100000000000001101 F
b1010000 .
b1010000 y
b1010000 S"
b11100 =
b11100 x
b1111 :
b1111 \"
b1001 1
b1001 ."
b1001 3"
b1001 ["
b1101 4
b1101 -"
b111100000100000 X
b111100000100000 P"
b1010 7
b1010 H"
1Z
b11 i
b11 r
b100000000000000000000000000000101000000000000000000000000000000101001111 )"
b1 W
b0 Q
b0 +"
b0 d
b0 B"
b0 G"
b0 j"
0_
b10100000000000000000000000000000000000000 @"
b0 U
b1101 S
b1101 /"
b1101 `"
b1010 K
b1010 Y"
1Y
1]
b10000000000001001010010101100000011000 :"
b100000 >
b100000 v
b100000 R"
b11100 E
b11100 w
b11100 ="
b11100 _"
b1110000100000000010100000000000001101 ;"
b1000111000000000000000000000000000000000000000000000000000000000000101000000000000000000111100000100000011010100101111 9"
b0 *"
b11000000000000000000000000000010100000000000000000000000000000010001101 A"
b1000 #
1!
#425
0!
#450
1l
1m
b111 c
b1110001 N"
b0 T
b0 E"
b0 J"
b0 Z"
b0 a"
b1101 f
b1101 q
b1101 e
b1101 n
b1101 Q"
b11 }
0~
b1110001 N
b1110001 |
b1110001 L"
1%"
b1001 6"
b1001 5"
b1010 6
b1010 e"
b1010 8
b1010 d"
b10110000001100000 +
b10110000001100000 z
b10110000001100000 f"
b100101001010110000001100000 /
b100101001010110000001100000 V"
b100101001010110000001100000 0
b100101001010110000001100000 n"
b11111111111111111111111111110011 k
b0 B
b0 o
b0 F"
1,"
b1010 R
b1010 ]"
b0 \
b0 0"
b0 D"
b1101 s
b100000000000000000000000000000011010000000000000000000000000000000001010 )"
b0 A
b0 K"
b0 O"
b0 ?
b0 {
b100101001 3
b100101001 4"
b1001 5
b1001 b"
b1001 2
b1001 c"
b1011 ;
b1000111000000000000000000000000000010100000000000000000000000000000101000000000000000000101100000011000010010100101011 8"
b101100000011000 ,
b101100000011000 g"
b101100000011000 i"
b101100000011000 H
b101100000011000 h"
b1001010010101100000011000 m"
b100100 @
b100100 W"
b100100 ^"
b0 S
b0 /"
b0 `"
b0 g
b0 X"
0Y
0]
b1111 Q
b1111 +"
b1010 L
b1010 k"
b10100 d
b10100 B"
b10100 G"
b10100 j"
b1000000000000000000000000000010100000000000000000000000000001010001111 @"
b1 U
b0 :
b0 \"
b1010 1
b1010 ."
b1010 3"
b1010 ["
b0 4
b0 -"
b1101 X
b1101 P"
b0 7
b0 H"
0Z
b10 i
b10 r
1h
b1001010010101100000011000 F
b10110000010000000 .
b10110000010000000 y
b10110000010000000 S"
b100000 =
b100000 x
b1000000000000000000000001011 G
b1000000000000000000000001011 <"
b100100 O
b100100 T"
b100100 U"
b10100000000000000000000000000000000000000 A"
b100000000000000000000000000000101000000000000000000000000000000101001111 *"
b1001100000000000000000000000000000000000000000000000000000000000000000000000000000000000000000000001101000000101000000 9"
b10000000000001001010010101100000011000 ;"
b10010000001000000000000000000000001011 :"
b100100 >
b100100 v
b100100 R"
b100000 E
b100000 w
b100000 ="
b100000 _"
b1001 #
1!
#475
0!
#500
0l
0m
b0 V
b0xx0 c
1(
b0xx00000 N"
bx }
1)
1D
0&"
b0xx00000 N
b0xx00000 |
b0xx00000 L"
0%"
b0 6"
b0 5"
b0 6
b0 e"
b0 8
b0 d"
b101100 +
b101100 z
b101100 f"
b101100 /
b101100 V"
b101100 0
b101100 n"
b10100 f
b10100 q
b101100 @
b101100 W"
b101100 ^"
b10 ?
b10 {
b0 3
b0 4"
b0 5
b0 b"
b0 2
b0 c"
b0 ;
b0xx0000000000000000000000000000000000000000000000000000000000000000000000000000000000000000000001011000000000000000 8"
b1011 ,
b1011 g"
b1011 i"
b1011 H
b1011 h"
b1011 m"
b1011 R
b1011 ]"
b11000 s
b1010 e
b1010 n
b1010 Q"
b0 k
b1010 B
b1010 o
b1010 F"
b100000000000000000000000000000101000000000000000000000000000000101001011 )"
b1010 A
b1010 K"
b1010 O"
b10100 T
b10100 E"
b10100 J"
b10100 Z"
b10100 a"
b100001001010010000000000000001 G
b100001001010010000000000000001 <"
b101000 O
b101000 T"
b101000 U"
b1000000000000000000000001011 F
b1010000 .
b1010000 y
b1010000 S"
b100100 =
b100100 x
b1011 :
b1011 \"
b1001 1
b1001 ."
b1001 3"
b1001 ["
b1001 4
b1001 -"
b101100000011000 X
b101100000011000 P"
b1010 7
b1010 H"
b1010 9
b1010 C"
1Z
b11 i
b11 r
0h
b1010 Q
b1010 +"
b0 L
b0 k"
b1000000000000000000000000000010100000000000000000000000000000110101010 @"
b1101 d
b1101 B"
b1101 G"
b1101 j"
b1111 S
b1111 /"
b1111 `"
b10100 g
b10100 X"
1Y
b10100000100001001010010000000000000001 :"
b101000 >
b101000 v
b101000 R"
b100100 E
b100100 w
b100100 ="
b100100 _"
b10010000001000000000000000000000001011 ;"
b1000111000000000000000000000000000010100000000000000000000000000000101000000000000000000101100000011000010010100101011 9"
b100000000000000000000000000000011010000000000000000000000000000000001010 *"
b1000000000000000000000000000010100000000000000000000000000001010001111 A"
b1010 #
1!
#525
0!
